sim/output_fft.txt
VCD info: dumpfile fft_wave_2frames.vcd opened for output.
--- [Time 50000] Start Feeding 2048 Samples (2 Frames) at 50MHz ---
--- [INFO] Inputting Frame 1 (0-1023) ---
--- [INFO] Inputting Frame 2 (1024-2047) ---
--- [Time 41010000] Feeding Dummy Data to Flush Pipeline ---
[230290000 ns] Pair 0 | A_Re: 41af2c2c | B_Re: bfedd3d0 | (Imag A: 00000000, B: 00000000)
[230330000 ns] Pair 1 | A_Re: 41adfde2 | B_Re: bfd22568 | (Imag A: 3fd7b2b1, B: c002bb78)
[230370000 ns] Pair 2 | A_Re: 411fa7f3 | B_Re: 3fe19250 | (Imag A: 40d82359, B: 40b88042)
[230410000 ns] Pair 3 | A_Re: 4157d059 | B_Re: 3fe8a930 | (Imag A: 408f1735, B: 403400d6)
[230450000 ns] Pair 4 | A_Re: 411894c6 | B_Re: 4112f653 | (Imag A: c00552b5, B: c0db8bc5)
[230490000 ns] Pair 5 | A_Re: 41a6addc | B_Re: 3f353060 | (Imag A: 4074bdd8, B: 404c83de)
[230530000 ns] Pair 6 | A_Re: 4188b54c | B_Re: bffe3818 | (Imag A: bf5362e4, B: 40dbb42f)
[230570000 ns] Pair 7 | A_Re: 41b9c0f9 | B_Re: 400d07c0 | (Imag A: c095734f, B: bf885eb0)
[230610000 ns] Pair 8 | A_Re: 41a36337 | B_Re: 400420bc | (Imag A: 406410c9, B: be049f80)
[230650000 ns] Pair 9 | A_Re: 41ae5c5b | B_Re: 40670c0c | (Imag A: 40b21ff2, B: 3f4bf0a0)
[230690000 ns] Pair 10 | A_Re: 41c8832d | B_Re: 3ee42760 | (Imag A: 411c808d, B: 402a523e)
[230730000 ns] Pair 11 | A_Re: 4188d789 | B_Re: 40b24e2f | (Imag A: c08117e0, B: 409ff9cb)
[230770000 ns] Pair 12 | A_Re: 41bcb061 | B_Re: c0944d60 | (Imag A: 405d29cc, B: bff7fcef)
[230810000 ns] Pair 13 | A_Re: 41b6ca27 | B_Re: c0b52a3c | (Imag A: 40506a9a, B: 3fba7d10)
[230850000 ns] Pair 14 | A_Re: 41fe87d0 | B_Re: 4035ccac | (Imag A: bf77013e, B: 3fa430bd)
[230890000 ns] Pair 15 | A_Re: 422d3c12 | B_Re: bed4c880 | (Imag A: c0bbb7d4, B: 3f98dfae)
[230930000 ns] Pair 16 | A_Re: 422f4a31 | B_Re: c1334488 | (Imag A: 4101be5c, B: 3fa3ef88)
[230970000 ns] Pair 17 | A_Re: 4270ab5c | B_Re: 3f8ea7a0 | (Imag A: 3fb70e8f, B: 3f49ae09)
[231010000 ns] Pair 18 | A_Re: 42850193 | B_Re: c0a76f64 | (Imag A: 3fccd603, B: 4027b0e2)
[231050000 ns] Pair 19 | A_Re: 42ebfbe6 | B_Re: 40837528 | (Imag A: bff1f312, B: 3fe4be36)
[231090000 ns] Pair 20 | A_Re: 43adbf43 | B_Re: bfe7a300 | (Imag A: c1be7f66, B: c0d39178)
[231130000 ns] Pair 21 | A_Re: c39f9977 | B_Re: 3f0e3f00 | (Imag A: 4032e709, B: 3fc98afc)
[231170000 ns] Pair 22 | A_Re: c2d5c56b | B_Re: 40c7a160 | (Imag A: 4110b4ce, B: 4078b353)
[231210000 ns] Pair 23 | A_Re: c2836145 | B_Re: c0700f18 | (Imag A: 40f64ce3, B: bf25d794)
[231250000 ns] Pair 24 | A_Re: c226813f | B_Re: 4039d2b8 | (Imag A: 41010cf7, B: 40224c08)
[231290000 ns] Pair 25 | A_Re: c1e7e365 | B_Re: 408152a2 | (Imag A: 404937b9, B: 408e1b85)
[231330000 ns] Pair 26 | A_Re: c1f01ef2 | B_Re: c0764f60 | (Imag A: 3fb35614, B: 40d80ab1)
[231370000 ns] Pair 27 | A_Re: c1d0ee34 | B_Re: bd945780 | (Imag A: c0b16b96, B: c08c55a0)
[231410000 ns] Pair 28 | A_Re: c15d1f5a | B_Re: 3f30dc90 | (Imag A: 407996cc, B: c0969ad7)
[231450000 ns] Pair 29 | A_Re: bed75060 | B_Re: c10d4a3c | (Imag A: 3d9bb9f8, B: 3f5cfe27)
[231490000 ns] Pair 30 | A_Re: c0eb2b69 | B_Re: c07c4f3d | (Imag A: c0f3539d, B: bf8fce5a)
[231530000 ns] Pair 31 | A_Re: c142803d | B_Re: bdcf5cc0 | (Imag A: 40c30a80, B: 403d640c)
[231570000 ns] Pair 32 | A_Re: c15544cd | B_Re: bf34d9d8 | (Imag A: 3fefbaff, B: 409ccb97)
[231610000 ns] Pair 33 | A_Re: c0e62476 | B_Re: 4082d8fd | (Imag A: 40dd3380, B: bf020cd4)
[231650000 ns] Pair 34 | A_Re: c0a393bc | B_Re: c0c38238 | (Imag A: be8a7484, B: 4009d764)
[231690000 ns] Pair 35 | A_Re: c09a1f03 | B_Re: c0dee5ee | (Imag A: c09d8569, B: 3fc77ae4)
[231730000 ns] Pair 36 | A_Re: bfd2ce95 | B_Re: c01f3fff | (Imag A: 4092d61e, B: beb9ae30)
[231770000 ns] Pair 37 | A_Re: c119e5a4 | B_Re: 3f6e55f8 | (Imag A: be993b08, B: c0ec1fa3)
[231810000 ns] Pair 38 | A_Re: c12c0254 | B_Re: 409d39de | (Imag A: c04ee0cf, B: c0986729)
[231850000 ns] Pair 39 | A_Re: 3f5ebbcc | B_Re: c0c9eadf | (Imag A: 3f1bc50b, B: 3fd322a4)
[231890000 ns] Pair 40 | A_Re: c0e24547 | B_Re: 40362e5a | (Imag A: 402a066c, B: 4099851d)
[231930000 ns] Pair 41 | A_Re: c103df4f | B_Re: bfcd8124 | (Imag A: be8b2848, B: 3fc80db7)
[231970000 ns] Pair 42 | A_Re: c1292094 | B_Re: 3fb5ecf4 | (Imag A: c0c20066, B: 40217ecf)
[232010000 ns] Pair 43 | A_Re: c100e903 | B_Re: 3fc040b0 | (Imag A: 3eac98b0, B: c0720f4e)
[232050000 ns] Pair 44 | A_Re: 4080cfc8 | B_Re: c07f8583 | (Imag A: bffdd518, B: 407a575c)
[232090000 ns] Pair 45 | A_Re: 3ff3e214 | B_Re: c11fc337 | (Imag A: c0e17825, B: 40af9c6a)
[232130000 ns] Pair 46 | A_Re: 403ad4f7 | B_Re: c0f2eb6c | (Imag A: c0d59c9b, B: 402fe885)
[232170000 ns] Pair 47 | A_Re: c01cc1a4 | B_Re: bfbebd59 | (Imag A: 4018524b, B: c102febe)
[232210000 ns] Pair 48 | A_Re: c1002f50 | B_Re: bf93b154 | (Imag A: c019b8f7, B: 40ab200e)
[232250000 ns] Pair 49 | A_Re: 3f4dd2aa | B_Re: bfa34f1f | (Imag A: c02611d6, B: 406eb252)
[232290000 ns] Pair 50 | A_Re: be960b90 | B_Re: 41466150 | (Imag A: c121bbba, B: c0836f1e)
[232330000 ns] Pair 51 | A_Re: c04343a5 | B_Re: c07af136 | (Imag A: 40cda21e, B: 40a252bb)
[232370000 ns] Pair 52 | A_Re: becfefc0 | B_Re: 408cecb0 | (Imag A: bf97f6ec, B: c0dda32d)
[232410000 ns] Pair 53 | A_Re: bfc5dc29 | B_Re: c0431c11 | (Imag A: 3f16a1ee, B: bfd589d5)
[232450000 ns] Pair 54 | A_Re: c0b4a393 | B_Re: c01f5625 | (Imag A: bfa93902, B: bf7124d3)
[232490000 ns] Pair 55 | A_Re: c08abf37 | B_Re: c09f6a3e | (Imag A: 3f95ccfe, B: c0f0e5ce)
[232530000 ns] Pair 56 | A_Re: 3fd68c3a | B_Re: 3d946568 | (Imag A: 40a1e272, B: bb0e9c00)
[232570000 ns] Pair 57 | A_Re: c01f442d | B_Re: c01d9562 | (Imag A: 40baf2e9, B: 3f647520)
[232610000 ns] Pair 58 | A_Re: 3fd16fb8 | B_Re: 3ff0defd | (Imag A: 3f85c4aa, B: c041a302)
[232650000 ns] Pair 59 | A_Re: c0bc1920 | B_Re: 402a9357 | (Imag A: c08d1a76, B: bfbbe65a)
[232690000 ns] Pair 60 | A_Re: bf2af210 | B_Re: 40cf434f | (Imag A: bfc1c9de, B: 40674703)
[232730000 ns] Pair 61 | A_Re: 3fbdc750 | B_Re: 40b759ac | (Imag A: c0804e87, B: c01c4368)
[232770000 ns] Pair 62 | A_Re: c0953aea | B_Re: 4098cac3 | (Imag A: bf0fa9c8, B: c11acaf5)
[232810000 ns] Pair 63 | A_Re: bfb95a85 | B_Re: bf92dbfc | (Imag A: c07eaa62, B: c06e3339)
[232850000 ns] Pair 64 | A_Re: c047eb2a | B_Re: 3f9aa533 | (Imag A: bfb3973c, B: 40e32d17)
[232890000 ns] Pair 65 | A_Re: c03230e5 | B_Re: bf995ef5 | (Imag A: 3c749100, B: c02b1c3d)
[232930000 ns] Pair 66 | A_Re: c01f32d6 | B_Re: 410d5cc2 | (Imag A: 401253eb, B: c0c04e18)
[232970000 ns] Pair 67 | A_Re: c13d52b7 | B_Re: c02499d0 | (Imag A: be7e8590, B: 4031bc6f)
[233010000 ns] Pair 68 | A_Re: 3f88d952 | B_Re: c0f56179 | (Imag A: 402586ba, B: 4090c5d1)
[233050000 ns] Pair 69 | A_Re: 40762097 | B_Re: bfa2971a | (Imag A: c0d5dcc6, B: c1313af3)
[233090000 ns] Pair 70 | A_Re: c12c2ed5 | B_Re: c0c5b3c5 | (Imag A: c05b9ce1, B: c055cab2)
[233130000 ns] Pair 71 | A_Re: 400223c1 | B_Re: c08dff44 | (Imag A: c10dc51c, B: 400e846c)
[233170000 ns] Pair 72 | A_Re: bf4a30e4 | B_Re: c1073675 | (Imag A: 402500de, B: c00dbce0)
[233210000 ns] Pair 73 | A_Re: 40de3f32 | B_Re: c0842133 | (Imag A: 40866ef6, B: 40970ef9)
[233250000 ns] Pair 74 | A_Re: c0a0acca | B_Re: bfc466d4 | (Imag A: c08c387d, B: bf9c714d)
[233290000 ns] Pair 75 | A_Re: 406ad479 | B_Re: 3dc6e710 | (Imag A: 3f18a958, B: 40b344d5)
[233330000 ns] Pair 76 | A_Re: 3ec7255c | B_Re: 3fbe5707 | (Imag A: c100c4d7, B: c0345f4d)
[233370000 ns] Pair 77 | A_Re: 41183426 | B_Re: 3fc91c30 | (Imag A: 3f6b6260, B: c0b6b5db)
[233410000 ns] Pair 78 | A_Re: c07e8089 | B_Re: 40dfbdc3 | (Imag A: 403559e8, B: 40777c4d)
[233450000 ns] Pair 79 | A_Re: c03f5dab | B_Re: 3eb3ec74 | (Imag A: 408737e8, B: 3fc33aca)
[233490000 ns] Pair 80 | A_Re: 3dfebfa8 | B_Re: 3fc5ef7d | (Imag A: c0b29c7a, B: 3fddb3fd)
[233530000 ns] Pair 81 | A_Re: c0c576de | B_Re: c03ba0c4 | (Imag A: 409765ca, B: c0e030e0)
[233570000 ns] Pair 82 | A_Re: 403a5a80 | B_Re: 40b900ca | (Imag A: c0684b19, B: 406cb766)
[233610000 ns] Pair 83 | A_Re: c0bcda39 | B_Re: bf6c2d10 | (Imag A: 401f60c2, B: 41620bb3)
[233650000 ns] Pair 84 | A_Re: c05248eb | B_Re: 4019c0f5 | (Imag A: be1b7de4, B: bfb86bd3)
[233690000 ns] Pair 85 | A_Re: bfc7ec3c | B_Re: c03a843e | (Imag A: c0268d85, B: 408bc13f)
[233730000 ns] Pair 86 | A_Re: 3f57d7d4 | B_Re: c0fd8463 | (Imag A: 40919203, B: 40747c09)
[233770000 ns] Pair 87 | A_Re: 3eca42b0 | B_Re: 41262284 | (Imag A: 4153565c, B: 3fdbe6f8)
[233810000 ns] Pair 88 | A_Re: 40a980d4 | B_Re: 3fc48caf | (Imag A: c09b9f10, B: bffd3d3d)
[233850000 ns] Pair 89 | A_Re: c0f4f6ad | B_Re: 3fb45804 | (Imag A: 40c1bf28, B: c09e8f49)
[233890000 ns] Pair 90 | A_Re: bfa39c3f | B_Re: bff4f7f8 | (Imag A: 4042822a, B: c03f2811)
[233930000 ns] Pair 91 | A_Re: c01c6b32 | B_Re: 400172f5 | (Imag A: 3fef286b, B: c059e6f8)
[233970000 ns] Pair 92 | A_Re: 3ff46485 | B_Re: 4003fe7a | (Imag A: 40950845, B: bda96940)
[234010000 ns] Pair 93 | A_Re: 40977db3 | B_Re: 409d43ca | (Imag A: 40a40053, B: 3fa5f7b3)
[234050000 ns] Pair 94 | A_Re: c0b7df1e | B_Re: beaacdd8 | (Imag A: bf656e26, B: 3fedfb03)
[234090000 ns] Pair 95 | A_Re: bf14c126 | B_Re: 3f8e2aa1 | (Imag A: bfa56a48, B: 404cc3f4)
[234130000 ns] Pair 96 | A_Re: c06f0c0b | B_Re: c00bc5de | (Imag A: 40c9163d, B: 3fd0f51c)
[234170000 ns] Pair 97 | A_Re: 4060977d | B_Re: 408d2571 | (Imag A: c05e84c5, B: c0db6d0d)
[234210000 ns] Pair 98 | A_Re: 40778211 | B_Re: be001d08 | (Imag A: 41173139, B: bee641a0)
[234250000 ns] Pair 99 | A_Re: 40a01505 | B_Re: c0922414 | (Imag A: c0e9da8f, B: c08e3d06)
[234290000 ns] Pair 100 | A_Re: bfe3bbc6 | B_Re: bec02326 | (Imag A: 40e74367, B: 410ede74)
[234330000 ns] Pair 101 | A_Re: c0b95979 | B_Re: 40a0ad20 | (Imag A: c01a168f, B: c103a56a)
[234370000 ns] Pair 102 | A_Re: 3fa30fad | B_Re: bf71a28c | (Imag A: beec9748, B: 407b9925)
[234410000 ns] Pair 103 | A_Re: c02533a3 | B_Re: 404bdb34 | (Imag A: bee252b8, B: 40e2e5a6)
[234450000 ns] Pair 104 | A_Re: 40a81a55 | B_Re: c08bb7d7 | (Imag A: 40208cf8, B: c0ae5272)
[234490000 ns] Pair 105 | A_Re: c0e005d4 | B_Re: 41060fca | (Imag A: 40e1b276, B: 3f7378a0)
[234530000 ns] Pair 106 | A_Re: 402ee159 | B_Re: bfc8363d | (Imag A: c0f20847, B: 3f74c768)
[234570000 ns] Pair 107 | A_Re: 40c01e4b | B_Re: 40a9ca72 | (Imag A: 3fb17d22, B: c00df7ca)
[234610000 ns] Pair 108 | A_Re: c065c203 | B_Re: c00ef5dc | (Imag A: bff0b031, B: c02e281d)
[234650000 ns] Pair 109 | A_Re: 3fd5cf42 | B_Re: c0f5c639 | (Imag A: c1227cde, B: 3ea0e3a0)
[234690000 ns] Pair 110 | A_Re: 40232d96 | B_Re: 3e1cf858 | (Imag A: 40e3763b, B: 3fefeca4)
[234730000 ns] Pair 111 | A_Re: 3f93463c | B_Re: c0a3821f | (Imag A: 3fd09a84, B: 40b156c4)
[234770000 ns] Pair 112 | A_Re: c0969b2f | B_Re: bf79ffa6 | (Imag A: c0a7569d, B: c0c4938a)
[234810000 ns] Pair 113 | A_Re: 3e30faa1 | B_Re: 3e49d82e | (Imag A: bd5fc100, B: c0c91e87)
[234850000 ns] Pair 114 | A_Re: 401692c9 | B_Re: 3f59f2f2 | (Imag A: bf6eb1cc, B: 4089c777)
[234890000 ns] Pair 115 | A_Re: 3e8ec990 | B_Re: c07ce6c0 | (Imag A: 40316243, B: 40650410)
[234930000 ns] Pair 116 | A_Re: 3f48a780 | B_Re: 3eee978b | (Imag A: 3fdd9b34, B: 40e03d03)
[234970000 ns] Pair 117 | A_Re: 406c76bb | B_Re: c0c9fd2e | (Imag A: c08ea995, B: 40ac6efa)
[235010000 ns] Pair 118 | A_Re: 409bc862 | B_Re: 3fb24d9c | (Imag A: 401b69d7, B: c0642908)
[235050000 ns] Pair 119 | A_Re: c0b7089f | B_Re: 40b8f4ee | (Imag A: bf9595c8, B: 40e7a50e)
[235090000 ns] Pair 120 | A_Re: be03e043 | B_Re: be37d47c | (Imag A: 403b813e, B: c10c28d3)
[235130000 ns] Pair 121 | A_Re: c0a7906a | B_Re: c0eeaf19 | (Imag A: 40f57ea7, B: c1209142)
[235170000 ns] Pair 122 | A_Re: 403bd548 | B_Re: c079024c | (Imag A: 4140ec65, B: bea37420)
[235210000 ns] Pair 123 | A_Re: c0892db9 | B_Re: c0a4e73e | (Imag A: bfbc4b08, B: 40e6414c)
[235250000 ns] Pair 124 | A_Re: c009433d | B_Re: c0ab1377 | (Imag A: be60f7f0, B: c0303635)
[235290000 ns] Pair 125 | A_Re: 409b0f29 | B_Re: 40a544fc | (Imag A: 3f828fe7, B: be9f249e)
[235330000 ns] Pair 126 | A_Re: 3f388e88 | B_Re: c08270be | (Imag A: 40b16da1, B: bf7037f8)
[235370000 ns] Pair 127 | A_Re: 40b2b681 | B_Re: 409dc59e | (Imag A: 40ea8a57, B: c095e902)
[235410000 ns] Pair 128 | A_Re: 3eb01fd8 | B_Re: c058d44b | (Imag A: c0eac152, B: 40264094)
[235450000 ns] Pair 129 | A_Re: c0a77ce5 | B_Re: c0875fce | (Imag A: bf9ea6b4, B: 40168d75)
[235490000 ns] Pair 130 | A_Re: c0aee306 | B_Re: c0bf34e3 | (Imag A: bf10ad0a, B: 3eca0a9d)
[235530000 ns] Pair 131 | A_Re: 3ee4da28 | B_Re: 40b77917 | (Imag A: 3f884bff, B: 3f9ced08)
[235570000 ns] Pair 132 | A_Re: bfb47975 | B_Re: bee1ee8b | (Imag A: c0f2ca4e, B: 40e49d23)
[235610000 ns] Pair 133 | A_Re: bff5a31e | B_Re: bf2829bb | (Imag A: bf8fde50, B: c100afb6)
[235650000 ns] Pair 134 | A_Re: c0bcf315 | B_Re: c04eec0c | (Imag A: 4110d8d2, B: 401183c2)
[235690000 ns] Pair 135 | A_Re: c021533c | B_Re: 3e4992c8 | (Imag A: c09bb5af, B: 4009503a)
[235730000 ns] Pair 136 | A_Re: 3f0cd3d0 | B_Re: c1084125 | (Imag A: c058eab5, B: c0d93a7d)
[235770000 ns] Pair 137 | A_Re: 409de760 | B_Re: 401db648 | (Imag A: 3e859200, B: 401a976b)
[235810000 ns] Pair 138 | A_Re: 403ef387 | B_Re: c0a19e9c | (Imag A: c0bc6485, B: 410d142b)
[235850000 ns] Pair 139 | A_Re: bef5671a | B_Re: c006e5d4 | (Imag A: c101d45a, B: 40c0e9cb)
[235890000 ns] Pair 140 | A_Re: 3fa186f2 | B_Re: bfae9795 | (Imag A: 404604c7, B: 40241e9c)
[235930000 ns] Pair 141 | A_Re: bea7df1b | B_Re: bf71dc70 | (Imag A: 40086f52, B: bfb835de)
[235970000 ns] Pair 142 | A_Re: c0714edc | B_Re: c080db44 | (Imag A: 409d54df, B: 40af7c60)
[236010000 ns] Pair 143 | A_Re: 40029fca | B_Re: 403df481 | (Imag A: 40d77303, B: 4105b3ae)
[236050000 ns] Pair 144 | A_Re: c04044b5 | B_Re: 3f074fe4 | (Imag A: bf7789b0, B: 407c04d8)
[236090000 ns] Pair 145 | A_Re: 4004b512 | B_Re: 400af599 | (Imag A: 404c7649, B: c0a1e26f)
[236130000 ns] Pair 146 | A_Re: bf029182 | B_Re: c0631191 | (Imag A: 40f6e470, B: c09b7367)
[236170000 ns] Pair 147 | A_Re: c07d769d | B_Re: bfbc2ed2 | (Imag A: bf0a9597, B: 3e8ea1df)
[236210000 ns] Pair 148 | A_Re: c0c37caa | B_Re: 4118b5fd | (Imag A: 3f7655bb, B: 3e82ab0e)
[236250000 ns] Pair 149 | A_Re: 3fd7df96 | B_Re: beff4978 | (Imag A: c01de33d, B: c0785922)
[236290000 ns] Pair 150 | A_Re: c08439ed | B_Re: 411e257f | (Imag A: c08e3ddf, B: c00e397d)
[236330000 ns] Pair 151 | A_Re: 40f32954 | B_Re: 3f4fb6e0 | (Imag A: 40e1802e, B: 3e907130)
[236370000 ns] Pair 152 | A_Re: c0fb939e | B_Re: bf0ec95c | (Imag A: 3ff8f659, B: c039c965)
[236410000 ns] Pair 153 | A_Re: 4066177e | B_Re: 3fbc1db0 | (Imag A: 40c8a677, B: 3fc8c8a0)
[236450000 ns] Pair 154 | A_Re: 4001c945 | B_Re: bf975572 | (Imag A: 3df1b080, B: c038cae5)
[236490000 ns] Pair 155 | A_Re: c01054ad | B_Re: bfbca4ef | (Imag A: c08378b0, B: bfb8df6e)
[236530000 ns] Pair 156 | A_Re: 40554c0d | B_Re: c07e59ea | (Imag A: c025bbb7, B: c0286716)
[236570000 ns] Pair 157 | A_Re: c04fd9e4 | B_Re: 3fe240de | (Imag A: c0237680, B: 410c8a6d)
[236610000 ns] Pair 158 | A_Re: 3fc5ec72 | B_Re: 40eded63 | (Imag A: c09ea113, B: 4105ec12)
[236650000 ns] Pair 159 | A_Re: bf925e5e | B_Re: c06f742b | (Imag A: c0794a08, B: bf8c31b4)
[236690000 ns] Pair 160 | A_Re: c0140246 | B_Re: 3fc0b362 | (Imag A: c0e4bb8e, B: c0867aa3)
[236730000 ns] Pair 161 | A_Re: 4066836f | B_Re: c10a6bad | (Imag A: bfe4db4e, B: c04ac7b1)
[236770000 ns] Pair 162 | A_Re: c01a5f35 | B_Re: 409fe414 | (Imag A: 3ffde830, B: 40f7f8e4)
[236810000 ns] Pair 163 | A_Re: 40dd6a4c | B_Re: 3fd24408 | (Imag A: c0db7b6b, B: c0376a60)
[236850000 ns] Pair 164 | A_Re: c0287e8a | B_Re: 3fe7f7bb | (Imag A: 4066ff15, B: c0e230a5)
[236890000 ns] Pair 165 | A_Re: 3eb82866 | B_Re: bf7e18a5 | (Imag A: 401da5ea, B: 408a1d93)
[236930000 ns] Pair 166 | A_Re: c01d0464 | B_Re: 3eff6b40 | (Imag A: 3fa06766, B: 3fb013f7)
[236970000 ns] Pair 167 | A_Re: 3f109098 | B_Re: c05266bf | (Imag A: 3df0f0c0, B: c0681d06)
[237010000 ns] Pair 168 | A_Re: c0814b50 | B_Re: c0de7608 | (Imag A: bf8999a2, B: c0509617)
[237050000 ns] Pair 169 | A_Re: c0f077a0 | B_Re: 40a7ee7d | (Imag A: 4112cd0c, B: 403ea74d)
[237090000 ns] Pair 170 | A_Re: c027a9c8 | B_Re: 4102ba8f | (Imag A: 40b8ec2c, B: 3fcffb3c)
[237130000 ns] Pair 171 | A_Re: 40b87913 | B_Re: bf277a40 | (Imag A: be1e7a60, B: c0fb8431)
[237170000 ns] Pair 172 | A_Re: 41125158 | B_Re: c0326e5b | (Imag A: 40d8aa5c, B: 40b998cd)
[237210000 ns] Pair 173 | A_Re: bff73474 | B_Re: c08f7799 | (Imag A: c0a65311, B: 406498a5)
[237250000 ns] Pair 174 | A_Re: bf2be524 | B_Re: 4038c4b9 | (Imag A: c0981aff, B: 406ff2c1)
[237290000 ns] Pair 175 | A_Re: 400c2340 | B_Re: c0fd5bb2 | (Imag A: c08dbb34, B: c0ce28bd)
[237330000 ns] Pair 176 | A_Re: 3f8539bc | B_Re: 41113962 | (Imag A: c00304a0, B: 3fa04d80)
[237370000 ns] Pair 177 | A_Re: 4001cd98 | B_Re: 3fd5a4e0 | (Imag A: 408d94fb, B: c10a029c)
[237410000 ns] Pair 178 | A_Re: 4138f695 | B_Re: bfc7aa90 | (Imag A: c0fae4f7, B: 3fee2d3c)
[237450000 ns] Pair 179 | A_Re: be9b2f08 | B_Re: c01de585 | (Imag A: c00c2389, B: c0fc0465)
[237490000 ns] Pair 180 | A_Re: bfcfc068 | B_Re: 40ade6a2 | (Imag A: 3fb7bda2, B: c050636d)
[237530000 ns] Pair 181 | A_Re: c1062427 | B_Re: becdacd8 | (Imag A: 414da5d4, B: c0c62d13)
[237570000 ns] Pair 182 | A_Re: bfbb343c | B_Re: 40b6c079 | (Imag A: bffcb838, B: bfd1585f)
[237610000 ns] Pair 183 | A_Re: bf8dea73 | B_Re: 4085a06b | (Imag A: c10e16bd, B: 410470af)
[237650000 ns] Pair 184 | A_Re: 404a9c5a | B_Re: c000389e | (Imag A: 404e1c71, B: 40010a38)
[237690000 ns] Pair 185 | A_Re: c021ad9d | B_Re: 4096708a | (Imag A: bfc6b882, B: c0a78c68)
[237730000 ns] Pair 186 | A_Re: 400f8876 | B_Re: bf50526a | (Imag A: 411db11f, B: c0f7c591)
[237770000 ns] Pair 187 | A_Re: c048d293 | B_Re: bf0a08c0 | (Imag A: 401c31fa, B: c08efe16)
[237810000 ns] Pair 188 | A_Re: 40419eaa | B_Re: bfb14c1b | (Imag A: 40ac8213, B: c092b045)
[237850000 ns] Pair 189 | A_Re: bc7f6700 | B_Re: 40c73cb5 | (Imag A: 3e685880, B: 409b6c8d)
[237890000 ns] Pair 190 | A_Re: 40fc203b | B_Re: c1000065 | (Imag A: 4067ce8e, B: 40303855)
[237930000 ns] Pair 191 | A_Re: 405a426a | B_Re: 40d702e7 | (Imag A: c0ea8564, B: bf3ee6d0)
[237970000 ns] Pair 192 | A_Re: 3fc25e4f | B_Re: 4052ee60 | (Imag A: 40138621, B: 403b5b65)
[238010000 ns] Pair 193 | A_Re: 40e13670 | B_Re: 401dad2c | (Imag A: bf8f9df7, B: c083454e)
[238050000 ns] Pair 194 | A_Re: c1438081 | B_Re: 4108af15 | (Imag A: 3f60725e, B: 3fae0531)
[238090000 ns] Pair 195 | A_Re: c030db6c | B_Re: c0351c91 | (Imag A: 401663fc, B: 3d921710)
[238130000 ns] Pair 196 | A_Re: bfffd544 | B_Re: c11871ea | (Imag A: 3f9c49ed, B: bfd52bc8)
[238170000 ns] Pair 197 | A_Re: 3f7c2bec | B_Re: c0e11976 | (Imag A: 3fc44d02, B: 40c688b0)
[238210000 ns] Pair 198 | A_Re: 40aaf4f1 | B_Re: c0ac290c | (Imag A: 40cc8584, B: c0089478)
[238250000 ns] Pair 199 | A_Re: c0050018 | B_Re: bfc6241d | (Imag A: 3f2b7384, B: 3f960bc1)
[238290000 ns] Pair 200 | A_Re: 3fd2dc2f | B_Re: 3fec30aa | (Imag A: 40a24e69, B: bf8d7753)
[238330000 ns] Pair 201 | A_Re: c002c8ab | B_Re: c0bb6142 | (Imag A: c0e88a66, B: c103ba11)
[238370000 ns] Pair 202 | A_Re: bf882fb2 | B_Re: 3f6c67ec | (Imag A: c05351da, B: 3ea8af8c)
[238410000 ns] Pair 203 | A_Re: 40c3b3b2 | B_Re: 40bac621 | (Imag A: bfeef39d, B: c049604b)
[238450000 ns] Pair 204 | A_Re: 3fdc8958 | B_Re: c0c21ae8 | (Imag A: c109d646, B: c02abe3b)
[238490000 ns] Pair 205 | A_Re: 40a3513f | B_Re: 3fea4eb2 | (Imag A: 4093c29d, B: bfa2295d)
[238530000 ns] Pair 206 | A_Re: bf370aae | B_Re: c051136c | (Imag A: bfda729d, B: bed16b7c)
[238570000 ns] Pair 207 | A_Re: c0295512 | B_Re: 40db736d | (Imag A: c0442dc6, B: 40e98075)
[238610000 ns] Pair 208 | A_Re: c08ce5c4 | B_Re: 40a917bc | (Imag A: bfd72dbe, B: 3f1de023)
[238650000 ns] Pair 209 | A_Re: c07da7b6 | B_Re: bf983f74 | (Imag A: 4059854a, B: bdaeaad0)
[238690000 ns] Pair 210 | A_Re: c0063de7 | B_Re: bfdb4a32 | (Imag A: c0e64416, B: bfe38b98)
[238730000 ns] Pair 211 | A_Re: 40113593 | B_Re: 3f984164 | (Imag A: c0be5ea4, B: 3f94e124)
[238770000 ns] Pair 212 | A_Re: 40b73181 | B_Re: 40362799 | (Imag A: c0376726, B: c1296540)
[238810000 ns] Pair 213 | A_Re: be93d451 | B_Re: beceda8e | (Imag A: 40b845f0, B: c034a5e2)
[238850000 ns] Pair 214 | A_Re: 407906af | B_Re: 409acc12 | (Imag A: c0176dc7, B: c08a6142)
[238890000 ns] Pair 215 | A_Re: bf8f3593 | B_Re: 40324cf7 | (Imag A: 3ea48b18, B: 405333ad)
[238930000 ns] Pair 216 | A_Re: be36a5f0 | B_Re: 4097f861 | (Imag A: c08e9922, B: bff5f8a3)
[238970000 ns] Pair 217 | A_Re: c05825f8 | B_Re: bfc58cb8 | (Imag A: bfb827d9, B: c0359ebf)
[239010000 ns] Pair 218 | A_Re: c0b8d7da | B_Re: 40a61d69 | (Imag A: 4044b813, B: bd406960)
[239050000 ns] Pair 219 | A_Re: 40a419ec | B_Re: c009f9bc | (Imag A: c00f9978, B: 40e88340)
[239090000 ns] Pair 220 | A_Re: c0388a7d | B_Re: bfb458f5 | (Imag A: 40b223eb, B: 40092dea)
[239130000 ns] Pair 221 | A_Re: bfde4172 | B_Re: c0e16f4f | (Imag A: c09e699a, B: 3f694ebc)
[239170000 ns] Pair 222 | A_Re: 3dd91420 | B_Re: bfbe7c56 | (Imag A: 4114821f, B: be852f00)
[239210000 ns] Pair 223 | A_Re: 3fef04e7 | B_Re: 4045b7de | (Imag A: 40fcba38, B: 406a00f0)
[239250000 ns] Pair 224 | A_Re: c05baebb | B_Re: 3e4c6f18 | (Imag A: 3f2bd4a0, B: be3ff850)
[239290000 ns] Pair 225 | A_Re: 3fd7e128 | B_Re: c0cc77cc | (Imag A: bf542d80, B: c0e5201b)
[239330000 ns] Pair 226 | A_Re: c12b4c04 | B_Re: 3e0fa2c0 | (Imag A: 40a5dce5, B: 403045b4)
[239370000 ns] Pair 227 | A_Re: 411e5e2f | B_Re: 40de0cd9 | (Imag A: bf404990, B: 40a425f2)
[239410000 ns] Pair 228 | A_Re: 40da777c | B_Re: bf9fc59e | (Imag A: 3f8f1314, B: c0daf5d0)
[239450000 ns] Pair 229 | A_Re: 400a1a4c | B_Re: 40744801 | (Imag A: bfcc7255, B: bfe42ccf)
[239490000 ns] Pair 230 | A_Re: c085d395 | B_Re: c06a0b18 | (Imag A: 40e193a7, B: 404f50e8)
[239530000 ns] Pair 231 | A_Re: c0c6b397 | B_Re: c11cdc78 | (Imag A: 40486a82, B: 3c9ee740)
[239570000 ns] Pair 232 | A_Re: 406fad5b | B_Re: c013a85b | (Imag A: c0a3a4da, B: c0975225)
[239610000 ns] Pair 233 | A_Re: 400dcda2 | B_Re: c0a4c4a1 | (Imag A: 40c6370a, B: c0ae79d5)
[239650000 ns] Pair 234 | A_Re: c0586ba6 | B_Re: c08e003d | (Imag A: 4001a32a, B: c0deffa7)
