cordic-based-fft-fixed-point/sim/output_fft.txt
VCD info: dumpfile fft_wave.vcd opened for output.
--- [Time 50000] Start Feeding 2048 Samples (2 Frames) at 50MHz ---
--- [INFO] Inputting Frame 1 (0-1023) ---
--- [INFO] Inputting Frame 2 (1024-2047) ---
--- [Time 41010000] Feeding Dummy Data to Flush Pipeline ---
[230290000 ns] Pair 0 | A_Re: 00000577 | B_Re: ffffff89 | (Imag A: 00000000, B: 00000000)
[230330000 ns] Pair 1 | A_Re: 00000569 | B_Re: ffffff98 | (Imag A: 00000066, B: ffffff7d)
[230370000 ns] Pair 2 | A_Re: 0000027b | B_Re: 00000071 | (Imag A: 000001ab, B: 00000172)
[230410000 ns] Pair 3 | A_Re: 00000220 | B_Re: 00000058 | (Imag A: 000001ee, B: 000000a1)
[230450000 ns] Pair 4 | A_Re: 00000260 | B_Re: 0000024c | (Imag A: ffffff77, B: fffffe4a)
[230490000 ns] Pair 5 | A_Re: 00000597 | B_Re: 00000067 | (Imag A: 00000063, B: 000000cc)
[230530000 ns] Pair 6 | A_Re: 000003db | B_Re: fffffeec | (Imag A: 00000108, B: 000001aa)
[230570000 ns] Pair 7 | A_Re: 000005c0 | B_Re: 000000f1 | (Imag A: 0000043a, B: 0000002e)
[230610000 ns] Pair 8 | A_Re: 00000517 | B_Re: 00000084 | (Imag A: 000000e1, B: fffffff8)
[230650000 ns] Pair 9 | A_Re: 00000562 | B_Re: 000000e8 | (Imag A: 0000014c, B: 00000030)
[230690000 ns] Pair 10 | A_Re: 0000063f | B_Re: 0000001d | (Imag A: 00000270, B: 000000ab)
[230730000 ns] Pair 11 | A_Re: 000003b4 | B_Re: 000000a0 | (Imag A: 000000bf, B: 00000190)
[230770000 ns] Pair 12 | A_Re: 000005e1 | B_Re: fffffed8 | (Imag A: 000000da, B: ffffff85)
[230810000 ns] Pair 13 | A_Re: 000007e8 | B_Re: fffffe6a | (Imag A: 0000004e, B: 00000063)
[230850000 ns] Pair 14 | A_Re: 0000010c | B_Re: 000000f5 | (Imag A: 000000ef, B: 000000a0)
[230890000 ns] Pair 15 | A_Re: 0000024f | B_Re: ffffff00 | (Imag A: 0000038e, B: ffffff5a)
[230930000 ns] Pair 16 | A_Re: 00000af2 | B_Re: fffffd33 | (Imag A: 00000205, B: 00000054)
[230970000 ns] Pair 17 | A_Re: 00000f13 | B_Re: 00000049 | (Imag A: 0000003f, B: 00000033)
[231010000 ns] Pair 18 | A_Re: 0000109e | B_Re: fffffeaf | (Imag A: 00000062, B: 000000a9)
[231050000 ns] Pair 19 | A_Re: 000014cc | B_Re: 0000009e | (Imag A: 000006b1, B: 00000081)
[231090000 ns] Pair 20 | A_Re: 000056dd | B_Re: ffffff8c | (Imag A: fffffa0c, B: fffffe58)
[231130000 ns] Pair 21 | A_Re: ffffb0f5 | B_Re: 00000034 | (Imag A: 000005de, B: 0000005e)
[231170000 ns] Pair 22 | A_Re: ffffe4aa | B_Re: 000000c0 | (Imag A: fffff932, B: 00000121)
[231210000 ns] Pair 23 | A_Re: ffffeb92 | B_Re: ffffffd1 | (Imag A: ffffed3f, B: fffffecb)
[231250000 ns] Pair 24 | A_Re: fffff594 | B_Re: 000000ba | (Imag A: 00000203, B: 000000a5)
[231290000 ns] Pair 25 | A_Re: fffff8b6 | B_Re: 000000fd | (Imag A: 000000b8, B: 0000011c)
[231330000 ns] Pair 26 | A_Re: fffff87c | B_Re: ffffff0a | (Imag A: 00000059, B: 000001af)
[231370000 ns] Pair 27 | A_Re: fffffbba | B_Re: 00000056 | (Imag A: fffffd95, B: ffffff14)
[231410000 ns] Pair 28 | A_Re: fffffc89 | B_Re: 0000002c | (Imag A: 000000f9, B: fffffed4)
[231450000 ns] Pair 29 | A_Re: fffffcdb | B_Re: fffffddb | (Imag A: 00000034, B: 00000065)
[231490000 ns] Pair 30 | A_Re: 000002eb | B_Re: ffffff2a | (Imag A: fffffec3, B: ffffff14)
[231530000 ns] Pair 31 | A_Re: 0000011a | B_Re: fffffe98 | (Imag A: 0000042e, B: 00000075)
[231570000 ns] Pair 32 | A_Re: fffffca9 | B_Re: ffffffd2 | (Imag A: 00000075, B: 0000013a)
[231610000 ns] Pair 33 | A_Re: fffffe34 | B_Re: 00000105 | (Imag A: 000001b7, B: ffffffe0)
[231650000 ns] Pair 34 | A_Re: fffffeb6 | B_Re: fffffe7b | (Imag A: ffffffec, B: 0000008b)
[231690000 ns] Pair 35 | A_Re: fffffff9 | B_Re: fffffe24 | (Imag A: fffffeaa, B: ffffff84)
[231730000 ns] Pair 36 | A_Re: ffffff94 | B_Re: ffffff61 | (Imag A: 00000122, B: ffffffe8)
[231770000 ns] Pair 37 | A_Re: fffffdd0 | B_Re: 00000012 | (Imag A: 0000003d, B: fffffe27)
[231810000 ns] Pair 38 | A_Re: fffffd2c | B_Re: 0000014d | (Imag A: fffffe5d, B: ffffff4d)
[231850000 ns] Pair 39 | A_Re: fffffe15 | B_Re: 00000015 | (Imag A: fffffe8e, B: fffffeca)
[231890000 ns] Pair 40 | A_Re: fffffe39 | B_Re: 000000b6 | (Imag A: 000000ab, B: 00000132)
[231930000 ns] Pair 41 | A_Re: fffffdf4 | B_Re: ffffff9d | (Imag A: fffffff4, B: 00000062)
[231970000 ns] Pair 42 | A_Re: fffffd58 | B_Re: 0000005b | (Imag A: fffffe7d, B: 000000a0)
[232010000 ns] Pair 43 | A_Re: fffffe12 | B_Re: 0000010c | (Imag A: ffffff91, B: fffffec6)
[232050000 ns] Pair 44 | A_Re: 000000ff | B_Re: ffffff03 | (Imag A: ffffff7f, B: 000000f8)
[232090000 ns] Pair 45 | A_Re: fffffe39 | B_Re: fffffd86 | (Imag A: fffffdd8, B: 000000d2)
[232130000 ns] Pair 46 | A_Re: 000002a3 | B_Re: fffffd76 | (Imag A: ffffff73, B: 0000001c)
[232170000 ns] Pair 47 | A_Re: 00000061 | B_Re: 000000dd | (Imag A: 00000243, B: fffffee6)
[232210000 ns] Pair 48 | A_Re: fffffdfd | B_Re: ffffffb7 | (Imag A: ffffff67, B: 00000154)
[232250000 ns] Pair 49 | A_Re: 00000045 | B_Re: ffffffaf | (Imag A: ffffff59, B: 000000f3)
[232290000 ns] Pair 50 | A_Re: ffffffec | B_Re: 00000319 | (Imag A: fffffd7a, B: fffffef9)
[232330000 ns] Pair 51 | A_Re: fffffef1 | B_Re: fffffec5 | (Imag A: 00000139, B: 000000e2)
[232370000 ns] Pair 52 | A_Re: ffffffe6 | B_Re: 0000011a | (Imag A: ffffffb1, B: fffffe44)
[232410000 ns] Pair 53 | A_Re: ffffffbb | B_Re: ffffff02 | (Imag A: 0000002e, B: ffffffbd)
[232450000 ns] Pair 54 | A_Re: fffffdb9 | B_Re: 0000004c | (Imag A: ffffff6e, B: ffffff56)
[232490000 ns] Pair 55 | A_Re: fffffed6 | B_Re: 000000f2 | (Imag A: fffffdc7, B: fffffe97)
[232530000 ns] Pair 56 | A_Re: 00000068 | B_Re: 00000006 | (Imag A: 00000142, B: 00000002)
[232570000 ns] Pair 57 | A_Re: ffffff64 | B_Re: ffffff63 | (Imag A: 00000173, B: 00000038)
[232610000 ns] Pair 58 | A_Re: 00000067 | B_Re: 00000077 | (Imag A: 00000044, B: ffffff3e)
[232650000 ns] Pair 59 | A_Re: ffffff3f | B_Re: 000000e6 | (Imag A: fffffe6f, B: 0000005b)
[232690000 ns] Pair 60 | A_Re: ffffffd4 | B_Re: 0000019e | (Imag A: ffffff9e, B: 000000e8)
[232730000 ns] Pair 61 | A_Re: ffffffa5 | B_Re: 00000170 | (Imag A: ffffff0b, B: ffffff54)
[232770000 ns] Pair 62 | A_Re: ffffffbd | B_Re: 0000015a | (Imag A: 0000000e, B: fffffe24)
[232810000 ns] Pair 63 | A_Re: 000001b1 | B_Re: ffffff59 | (Imag A: 00000154, B: 00000095)
[232850000 ns] Pair 64 | A_Re: ffffff38 | B_Re: 0000004d | (Imag A: ffffffa4, B: 000001c7)
[232890000 ns] Pair 65 | A_Re: ffffff4f | B_Re: ffffffb3 | (Imag A: ffffffff, B: ffffff56)
[232930000 ns] Pair 66 | A_Re: ffffff60 | B_Re: 00000234 | (Imag A: 00000090, B: fffffe80)
[232970000 ns] Pair 67 | A_Re: fffffd7a | B_Re: ffffff30 | (Imag A: ffffff3a, B: 0000010a)
[233010000 ns] Pair 68 | A_Re: 00000043 | B_Re: fffffe16 | (Imag A: 000000a4, B: 00000120)
[233050000 ns] Pair 69 | A_Re: 000000dd | B_Re: ffffff73 | (Imag A: fffffe3d, B: fffffd52)
[233090000 ns] Pair 70 | A_Re: fffffd3a | B_Re: fffffece | (Imag A: fffffea6, B: ffffff7a)
[233130000 ns] Pair 71 | A_Re: 00000112 | B_Re: ffffff0c | (Imag A: ffffff46, B: 00000074)
[233170000 ns] Pair 72 | A_Re: ffffffcc | B_Re: fffffde6 | (Imag A: 000000a2, B: ffffff72)
[233210000 ns] Pair 73 | A_Re: 000001b7 | B_Re: fffffef9 | (Imag A: 00000101, B: 0000012d)
[233250000 ns] Pair 74 | A_Re: fffffec0 | B_Re: ffffff9c | (Imag A: fffffee4, B: ffffffb4)
[233290000 ns] Pair 75 | A_Re: 00000086 | B_Re: 00000009 | (Imag A: 00000172, B: 000001c9)
[233330000 ns] Pair 76 | A_Re: 00000018 | B_Re: 0000005f | (Imag A: fffffdfa, B: ffffff4c)
[233370000 ns] Pair 77 | A_Re: 0000018c | B_Re: 0000006c | (Imag A: fffffffc, B: fffffe44)
[233410000 ns] Pair 78 | A_Re: 0000000b | B_Re: 0000010b | (Imag A: 00000179, B: 000001d8)
[233450000 ns] Pair 79 | A_Re: fffffdda | B_Re: 0000003e | (Imag A: 0000024f, B: 000001b4)
[233490000 ns] Pair 80 | A_Re: 00000006 | B_Re: 00000063 | (Imag A: fffffe9d, B: 0000006d)
[233530000 ns] Pair 81 | A_Re: fffffe84 | B_Re: ffffff21 | (Imag A: 00000134, B: fffffe4a)
[233570000 ns] Pair 82 | A_Re: 000000bc | B_Re: 00000170 | (Imag A: ffffff16, B: 000000ec)
[233610000 ns] Pair 83 | A_Re: fffffe65 | B_Re: ffffff64 | (Imag A: 000000cd, B: 000003a2)
[233650000 ns] Pair 84 | A_Re: ffffff2e | B_Re: 00000099 | (Imag A: fffffff6, B: ffffffa4)
[233690000 ns] Pair 85 | A_Re: ffffffb5 | B_Re: ffffff4e | (Imag A: ffffff60, B: 00000111)
[233730000 ns] Pair 86 | A_Re: ffffff8a | B_Re: fffffd84 | (Imag A: 00000108, B: 0000003f)
[233770000 ns] Pair 87 | A_Re: fffffe8d | B_Re: 00000226 | (Imag A: 00000186, B: 00000179)
[233810000 ns] Pair 88 | A_Re: 00000154 | B_Re: 00000062 | (Imag A: fffffec9, B: ffffff80)
[233850000 ns] Pair 89 | A_Re: fffffe0d | B_Re: 0000005d | (Imag A: 0000017e, B: fffffec1)
[233890000 ns] Pair 90 | A_Re: ffffffb9 | B_Re: ffffff9c | (Imag A: 000000c6, B: ffffff36)
[233930000 ns] Pair 91 | A_Re: ffffffa2 | B_Re: 00000060 | (Imag A: ffffffc7, B: ffffff93)
[233970000 ns] Pair 92 | A_Re: 00000078 | B_Re: 00000084 | (Imag A: 00000126, B: fffffffa)
[234010000 ns] Pair 93 | A_Re: 000000f4 | B_Re: 00000132 | (Imag A: 00000124, B: 0000004a)
[234050000 ns] Pair 94 | A_Re: ffffff7f | B_Re: 00000029 | (Imag A: ffffffcf, B: 000000a8)
[234090000 ns] Pair 95 | A_Re: 00000155 | B_Re: fffffe8e | (Imag A: 00000040, B: 000000e4)
[234130000 ns] Pair 96 | A_Re: ffffff10 | B_Re: ffffff74 | (Imag A: 00000192, B: 00000068)
[234170000 ns] Pair 97 | A_Re: 000000e0 | B_Re: 00000119 | (Imag A: ffffff20, B: fffffe47)
[234210000 ns] Pair 98 | A_Re: 000000f6 | B_Re: fffffff9 | (Imag A: 0000025c, B: ffffffe3)
[234250000 ns] Pair 99 | A_Re: 00000198 | B_Re: ffffff3a | (Imag A: fffffead, B: fffffef6)
[234290000 ns] Pair 100 | A_Re: ffffff90 | B_Re: ffffffe5 | (Imag A: 000001cf, B: 0000023d)
[234330000 ns] Pair 101 | A_Re: fffffeb1 | B_Re: 00000131 | (Imag A: ffffffae, B: fffffdd8)
[234370000 ns] Pair 102 | A_Re: 00000065 | B_Re: ffffff56 | (Imag A: 0000007a, B: 000000d1)
[234410000 ns] Pair 103 | A_Re: fffffef3 | B_Re: ffffff8b | (Imag A: ffffffce, B: 000001c5)
[234450000 ns] Pair 104 | A_Re: 00000150 | B_Re: fffffee9 | (Imag A: 0000009e, B: fffffea4)
[234490000 ns] Pair 105 | A_Re: fffffe46 | B_Re: 00000218 | (Imag A: 000001cc, B: 00000039)
[234530000 ns] Pair 106 | A_Re: 000000af | B_Re: ffffff9b | (Imag A: fffffe1b, B: 0000003d)
[234570000 ns] Pair 107 | A_Re: 0000015b | B_Re: 0000011f | (Imag A: 000000ed, B: ffffffc5)
[234610000 ns] Pair 108 | A_Re: ffffff1a | B_Re: ffffff71 | (Imag A: ffffff87, B: ffffff52)
[234650000 ns] Pair 109 | A_Re: 0000000b | B_Re: fffffe3c | (Imag A: fffffd7a, B: ffffffe1)
[234690000 ns] Pair 110 | A_Re: 00000087 | B_Re: 0000003d | (Imag A: 00000276, B: 00000047)
[234730000 ns] Pair 111 | A_Re: 00000001 | B_Re: fffffd6b | (Imag A: 000000c7, B: 00000006)
[234770000 ns] Pair 112 | A_Re: fffffed2 | B_Re: ffffffc1 | (Imag A: fffffeb2, B: fffffe75)
[234810000 ns] Pair 113 | A_Re: 0000000d | B_Re: 00000008 | (Imag A: fffffffb, B: fffffe71)
[234850000 ns] Pair 114 | A_Re: 00000096 | B_Re: 00000036 | (Imag A: ffffffc4, B: 00000112)
[234890000 ns] Pair 115 | A_Re: ffffffbd | B_Re: ffffff6b | (Imag A: 000000a0, B: 000000a4)
[234930000 ns] Pair 116 | A_Re: 0000002e | B_Re: 0000001f | (Imag A: 00000071, B: 000001c0)
[234970000 ns] Pair 117 | A_Re: 000000ef | B_Re: fffffe61 | (Imag A: fffffec5, B: 00000171)
[235010000 ns] Pair 118 | A_Re: 000000c6 | B_Re: 00000052 | (Imag A: 000000c5, B: ffffff2c)
[235050000 ns] Pair 119 | A_Re: ffffff27 | B_Re: 00000162 | (Imag A: fffffefb, B: 00000233)
[235090000 ns] Pair 120 | A_Re: fffffff7 | B_Re: fffffff5 | (Imag A: 000000bb, B: fffffdcf)
[235130000 ns] Pair 121 | A_Re: fffffeb2 | B_Re: fffffe28 | (Imag A: 000001e9, B: fffffd7e)
[235170000 ns] Pair 122 | A_Re: 000000b9 | B_Re: ffffff09 | (Imag A: 00000303, B: ffffffeb)
[235210000 ns] Pair 123 | A_Re: ffffff89 | B_Re: fffffe8e | (Imag A: ffffffea, B: 000000a4)
[235250000 ns] Pair 124 | A_Re: ffffff74 | B_Re: fffffeac | (Imag A: fffffff2, B: ffffff50)
[235290000 ns] Pair 125 | A_Re: 0000010f | B_Re: 0000014d | (Imag A: 0000000c, B: ffffffe3)
[235330000 ns] Pair 126 | A_Re: ffffff7d | B_Re: ffffff0f | (Imag A: 000001c5, B: ffffffc3)
[235370000 ns] Pair 127 | A_Re: 0000007f | B_Re: 0000018c | (Imag A: 0000032f, B: ffffff56)
[235410000 ns] Pair 128 | A_Re: 00000014 | B_Re: ffffff27 | (Imag A: fffffe2b, B: 000000a6)
[235450000 ns] Pair 129 | A_Re: fffffeb3 | B_Re: fffffef2 | (Imag A: ffffffb0, B: 00000097)
[235490000 ns] Pair 130 | A_Re: fffffea2 | B_Re: fffffe84 | (Imag A: ffffffdb, B: 00000019)
[235530000 ns] Pair 131 | A_Re: fffffff2 | B_Re: 000000f0 | (Imag A: ffffffc5, B: 000000cb)
[235570000 ns] Pair 132 | A_Re: ffffffa5 | B_Re: ffffffe2 | (Imag A: fffffe1a, B: 000001ca)
[235610000 ns] Pair 133 | A_Re: ffffffa8 | B_Re: ffffffb7 | (Imag A: ffffffc4, B: fffffdf8)
[235650000 ns] Pair 134 | A_Re: fffffdd3 | B_Re: ffffff08 | (Imag A: 00000148, B: 000000a7)
[235690000 ns] Pair 135 | A_Re: 00000060 | B_Re: ffffff55 | (Imag A: fffffdf5, B: 00000078)
[235730000 ns] Pair 136 | A_Re: 00000023 | B_Re: fffffde0 | (Imag A: ffffff26, B: fffffe4f)
[235770000 ns] Pair 137 | A_Re: 00000135 | B_Re: 000000a1 | (Imag A: 0000000b, B: 00000098)
[235810000 ns] Pair 138 | A_Re: 000000bd | B_Re: fffffebf | (Imag A: fffffe87, B: 00000234)
[235850000 ns] Pair 139 | A_Re: 000000b8 | B_Re: fffffef3 | (Imag A: fffffed7, B: 00000166)
[235890000 ns] Pair 140 | A_Re: 0000004f | B_Re: ffffffa9 | (Imag A: 000000c4, B: 000000a6)
[235930000 ns] Pair 141 | A_Re: ffffff68 | B_Re: ffffffde | (Imag A: 0000005e, B: ffffff75)
[235970000 ns] Pair 142 | A_Re: ffffff49 | B_Re: ffffff55 | (Imag A: 0000009b, B: 0000010c)
[236010000 ns] Pair 143 | A_Re: fffffefc | B_Re: ffffff6b | (Imag A: 000003ab, B: 000000d0)
[236050000 ns] Pair 144 | A_Re: ffffff43 | B_Re: 00000020 | (Imag A: ffffffc1, B: 000000fd)
[236090000 ns] Pair 145 | A_Re: 00000088 | B_Re: 0000008a | (Imag A: 000000c9, B: fffffebe)
[236130000 ns] Pair 146 | A_Re: ffffffdf | B_Re: ffffff1c | (Imag A: 000001ed, B: fffffec9)
[236170000 ns] Pair 147 | A_Re: ffffff67 | B_Re: ffffff99 | (Imag A: ffffff9c, B: ffffff60)
[236210000 ns] Pair 148 | A_Re: fffffe7a | B_Re: 00000262 | (Imag A: 0000003c, B: 00000012)
[236250000 ns] Pair 149 | A_Re: 00000081 | B_Re: ffffffc8 | (Imag A: ffffff71, B: fffffeee)
[236290000 ns] Pair 150 | A_Re: ffffffc4 | B_Re: 000002e5 | (Imag A: fffffe17, B: 0000007e)
[236330000 ns] Pair 151 | A_Re: 000000c9 | B_Re: 000000f5 | (Imag A: 000000ef, B: ffffff24)
[236370000 ns] Pair 152 | A_Re: fffffe07 | B_Re: ffffffdd | (Imag A: 00000079, B: ffffff47)
[236410000 ns] Pair 153 | A_Re: 000000e1 | B_Re: 00000063 | (Imag A: 0000018f, B: 00000067)
[236450000 ns] Pair 154 | A_Re: 00000081 | B_Re: ffffffb4 | (Imag A: 00000005, B: ffffff48)
[236490000 ns] Pair 155 | A_Re: ffffff98 | B_Re: ffffff92 | (Imag A: fffffe23, B: ffffff20)
[236530000 ns] Pair 156 | A_Re: 000000d3 | B_Re: ffffff01 | (Imag A: ffffff59, B: ffffff58)
[236570000 ns] Pair 157 | A_Re: fffffefe | B_Re: 00000093 | (Imag A: ffffff38, B: 000001ff)
[236610000 ns] Pair 158 | A_Re: 00000112 | B_Re: 000000a5 | (Imag A: ffffff84, B: 00000281)
[236650000 ns] Pair 159 | A_Re: 000000ae | B_Re: ffffff8b | (Imag A: ffffffff, B: fffffea9)
[236690000 ns] Pair 160 | A_Re: ffffff6c | B_Re: 0000005e | (Imag A: fffffe38, B: fffffef3)
[236730000 ns] Pair 161 | A_Re: 000000e5 | B_Re: fffffdd7 | (Imag A: ffffff8e, B: ffffff36)
[236770000 ns] Pair 162 | A_Re: ffffff66 | B_Re: 00000140 | (Imag A: 00000080, B: 000001ef)
[236810000 ns] Pair 163 | A_Re: 00000208 | B_Re: 000000a6 | (Imag A: fffffed8, B: ffffff2c)
[236850000 ns] Pair 164 | A_Re: ffffff59 | B_Re: 00000075 | (Imag A: 000000e5, B: fffffe3b)
[236890000 ns] Pair 165 | A_Re: 00000034 | B_Re: ffffffdd | (Imag A: 000000ac, B: 0000011e)
[236930000 ns] Pair 166 | A_Re: ffffff5c | B_Re: ffffffdc | (Imag A: fffffffa, B: ffffffeb)
[236970000 ns] Pair 167 | A_Re: ffffffc0 | B_Re: 000000d8 | (Imag A: ffffffbf, B: fffffe77)
[237010000 ns] Pair 168 | A_Re: fffffefd | B_Re: fffffe45 | (Imag A: ffffffb9, B: ffffff32)
[237050000 ns] Pair 169 | A_Re: fffffe2a | B_Re: 00000155 | (Imag A: 00000254, B: 000000c2)
[237090000 ns] Pair 170 | A_Re: ffffff58 | B_Re: 0000020c | (Imag A: 0000016f, B: 00000069)
[237130000 ns] Pair 171 | A_Re: 00000167 | B_Re: 00000079 | (Imag A: 0000000f, B: fffffe15)
[237170000 ns] Pair 172 | A_Re: 00000247 | B_Re: ffffff4d | (Imag A: 000001b1, B: 00000175)
[237210000 ns] Pair 173 | A_Re: ffffff2b | B_Re: ffffff17 | (Imag A: fffffe56, B: 0000008f)
[237250000 ns] Pair 174 | A_Re: 000000a3 | B_Re: 00000065 | (Imag A: ffffff37, B: 000000fb)
[237290000 ns] Pair 175 | A_Re: 000000e2 | B_Re: fffffef9 | (Imag A: ffffffc0, B: fffffedd)
[237330000 ns] Pair 176 | A_Re: 00000043 | B_Re: 00000244 | (Imag A: ffffff7d, B: 00000051)
[237370000 ns] Pair 177 | A_Re: 00000089 | B_Re: 00000067 | (Imag A: 00000119, B: fffffdd8)
[237410000 ns] Pair 178 | A_Re: 000002e2 | B_Re: ffffff9c | (Imag A: fffffe0b, B: 00000075)
[237450000 ns] Pair 179 | A_Re: fffffff7 | B_Re: 0000007e | (Imag A: ffffff31, B: fffffefb)
[237490000 ns] Pair 180 | A_Re: ffffffab | B_Re: 0000017a | (Imag A: 00000048, B: ffffff50)
[237530000 ns] Pair 181 | A_Re: fffffddc | B_Re: ffffffc4 | (Imag A: 0000031a, B: fffffe7e)
[237570000 ns] Pair 182 | A_Re: 00000015 | B_Re: 000000f3 | (Imag A: fffffff2, B: ffffffa1)
[237610000 ns] Pair 183 | A_Re: 000000e3 | B_Re: ffffffaa | (Imag A: fffffe32, B: 000003c0)
[237650000 ns] Pair 184 | A_Re: 000000cb | B_Re: ffffff80 | (Imag A: 000000ca, B: 00000082)
[237690000 ns] Pair 185 | A_Re: ffffff5e | B_Re: 0000012c | (Imag A: ffffff9a, B: fffffeb5)
[237730000 ns] Pair 186 | A_Re: 0000008f | B_Re: ffffffcb | (Imag A: 00000275, B: fffffe11)
[237770000 ns] Pair 187 | A_Re: ffffff11 | B_Re: 00000099 | (Imag A: 0000009a, B: fffffec4)
[237810000 ns] Pair 188 | A_Re: 000000c1 | B_Re: ffffffa8 | (Imag A: 00000156, B: fffffedb)
[237850000 ns] Pair 189 | A_Re: ffffffcc | B_Re: 000001b0 | (Imag A: 00000013, B: 000000ef)
[237890000 ns] Pair 190 | A_Re: 00000201 | B_Re: fffffd55 | (Imag A: 00000237, B: ffffffda)
[237930000 ns] Pair 191 | A_Re: 000000fd | B_Re: 00000070 | (Imag A: 000000ed, B: 00000083)
[237970000 ns] Pair 192 | A_Re: 00000060 | B_Re: 000000d3 | (Imag A: 00000094, B: 000000ba)
[238010000 ns] Pair 193 | A_Re: 000001c1 | B_Re: 0000009e | (Imag A: ffffffb8, B: fffffefa)
[238050000 ns] Pair 194 | A_Re: fffffcef | B_Re: 00000225 | (Imag A: 0000003b, B: 00000055)
[238090000 ns] Pair 195 | A_Re: fffffe9d | B_Re: ffffff1a | (Imag A: 000000e0, B: ffffffd8)
[238130000 ns] Pair 196 | A_Re: ffffff7f | B_Re: fffffda0 | (Imag A: 0000004d, B: ffffff95)
[238170000 ns] Pair 197 | A_Re: 00000046 | B_Re: fffffe65 | (Imag A: 0000005f, B: 000001c8)
[238210000 ns] Pair 198 | A_Re: 0000005b | B_Re: ffffff39 | (Imag A: 00000193, B: fffffec4)
[238250000 ns] Pair 199 | A_Re: fffffeeb | B_Re: ffffffbb | (Imag A: ffffffb3, B: 0000013c)
[238290000 ns] Pair 200 | A_Re: 00000068 | B_Re: 00000075 | (Imag A: 00000144, B: ffffffba)
[238330000 ns] Pair 201 | A_Re: ffffff71 | B_Re: fffffe8d | (Imag A: fffffe30, B: fffffdf6)
[238370000 ns] Pair 202 | A_Re: ffffffbd | B_Re: 0000003a | (Imag A: ffffff2e, B: 00000014)
[238410000 ns] Pair 203 | A_Re: 00000150 | B_Re: 000001b3 | (Imag A: 00000058, B: 00000025)
[238450000 ns] Pair 204 | A_Re: 0000006e | B_Re: fffffe7d | (Imag A: fffffdd8, B: ffffff55)
[238490000 ns] Pair 205 | A_Re: 000000fd | B_Re: 00000091 | (Imag A: 00000113, B: ffffff89)
[238530000 ns] Pair 206 | A_Re: 00000021 | B_Re: ffffff69 | (Imag A: ffffff97, B: ffffffc0)
[238570000 ns] Pair 207 | A_Re: ffffff84 | B_Re: fffffedb | (Imag A: 00000016, B: 000001ec)
[238610000 ns] Pair 208 | A_Re: fffffee7 | B_Re: 00000151 | (Imag A: ffffff93, B: 00000028)
[238650000 ns] Pair 209 | A_Re: ffffff05 | B_Re: ffffffb7 | (Imag A: 000000dd, B: fffffff8)
[238690000 ns] Pair 210 | A_Re: ffffff79 | B_Re: ffffff91 | (Imag A: fffffe35, B: ffffff8d)
[238730000 ns] Pair 211 | A_Re: 000000ba | B_Re: 00000010 | (Imag A: ffffff5a, B: 00000004)
[238770000 ns] Pair 212 | A_Re: 0000016e | B_Re: 000000b7 | (Imag A: ffffff46, B: fffffd5c)
[238810000 ns] Pair 213 | A_Re: 00000021 | B_Re: fffffff2 | (Imag A: 00000196, B: ffffff57)
[238850000 ns] Pair 214 | A_Re: 000000cd | B_Re: 000001ae | (Imag A: 00000022, B: ffffff30)
[238890000 ns] Pair 215 | A_Re: fffffe70 | B_Re: fffffffe | (Imag A: 000000e8, B: 000000dd)
[238930000 ns] Pair 216 | A_Re: fffffff5 | B_Re: 0000012d | (Imag A: fffffee3, B: ffffff86)
[238970000 ns] Pair 217 | A_Re: ffffff2b | B_Re: ffffffa0 | (Imag A: ffffffa2, B: ffffff4e)
[239010000 ns] Pair 218 | A_Re: fffffe85 | B_Re: 00000146 | (Imag A: 000000a7, B: 0000001d)
[239050000 ns] Pair 219 | A_Re: 0000010b | B_Re: fffffebf | (Imag A: 00000093, B: 00000128)
[239090000 ns] Pair 220 | A_Re: ffffff47 | B_Re: ffffffa4 | (Imag A: 00000163, B: 00000089)
[239130000 ns] Pair 221 | A_Re: ffffff5b | B_Re: fffffe34 | (Imag A: fffffed1, B: 00000046)
[239170000 ns] Pair 222 | A_Re: fffffef1 | B_Re: fffffef4 | (Imag A: 000002af, B: 00000015)
[239210000 ns] Pair 223 | A_Re: fffffdea | B_Re: ffffff61 | (Imag A: 00000276, B: ffffffa9)
[239250000 ns] Pair 224 | A_Re: ffffff25 | B_Re: 0000000c | (Imag A: 0000002a, B: fffffff4)
[239290000 ns] Pair 225 | A_Re: 00000069 | B_Re: fffffe6b | (Imag A: ffffffc8, B: fffffe37)
[239330000 ns] Pair 226 | A_Re: fffffd52 | B_Re: 00000009 | (Imag A: 00000149, B: 000000b2)
[239370000 ns] Pair 227 | A_Re: 000001d8 | B_Re: 000000b1 | (Imag A: 0000007e, B: 00000112)
[239410000 ns] Pair 228 | A_Re: 000001b2 | B_Re: ffffffb4 | (Imag A: 00000046, B: fffffe4b)
[239450000 ns] Pair 229 | A_Re: 00000091 | B_Re: 000000d3 | (Imag A: ffffff9b, B: ffffff9e)
[239490000 ns] Pair 230 | A_Re: fffffe87 | B_Re: ffffff32 | (Imag A: 00000100, B: 00000060)
[239530000 ns] Pair 231 | A_Re: fffffcf1 | B_Re: fffffedb | (Imag A: fffffec5, B: fffffd86)
[239570000 ns] Pair 232 | A_Re: 000000ec | B_Re: ffffff6c | (Imag A: fffffebb, B: fffffed1)
[239610000 ns] Pair 233 | A_Re: 00000090 | B_Re: fffffeb2 | (Imag A: 0000018e, B: fffffea4)
[239650000 ns] Pair 234 | A_Re: ffffff26 | B_Re: fffffee5 | (Imag A: 00000081, B: fffffe42)
[239690000 ns] Pair 235 | A_Re: ffffff97 | B_Re: 0000001d | (Imag A: 00000290, B: fffffeea)
[239730000 ns] Pair 236 | A_Re: ffffff54 | B_Re: ffffff5c | (Imag A: 000000cc, B: 00000150)
[239770000 ns] Pair 237 | A_Re: 0000005a | B_Re: 0000002b | (Imag A: 00000006, B: fffffeab)
[239810000 ns] Pair 238 | A_Re: ffffff66 | B_Re: ffffffbf | (Imag A: 000001d9, B: 00000010)
[239850000 ns] Pair 239 | A_Re: fffffdff | B_Re: ffffff7e | (Imag A: 000001a2, B: 000000a5)
[239890000 ns] Pair 240 | A_Re: 000000ce | B_Re: 000000c7 | (Imag A: fffffffe, B: ffffffbb)
[239930000 ns] Pair 241 | A_Re: 000000e2 | B_Re: fffffcfa | (Imag A: 00000037, B: 00000285)
[239970000 ns] Pair 242 | A_Re: 00000073 | B_Re: 00000073 | (Imag A: ffffff45, B: fffffeec)
[240010000 ns] Pair 243 | A_Re: ffffffa4 | B_Re: fffffeb9 | (Imag A: 000000b0, B: 00000026)
[240050000 ns] Pair 244 | A_Re: ffffffb2 | B_Re: 00000056 | (Imag A: 00000131, B: ffffffe4)
[240090000 ns] Pair 245 | A_Re: ffffff3b | B_Re: ffffff41 | (Imag A: ffffff1f, B: fffffe8d)
[240130000 ns] Pair 246 | A_Re: ffffffc4 | B_Re: ffffffdc | (Imag A: ffffffcc, B: ffffffdc)
[240170000 ns] Pair 247 | A_Re: 000000e1 | B_Re: ffffff4e | (Imag A: 0000002d, B: 000000e4)
[240210000 ns] Pair 248 | A_Re: 000000ff | B_Re: 00000060 | (Imag A: 00000133, B: 0000011a)
[240250000 ns] Pair 249 | A_Re: 00000045 | B_Re: 000001cf | (Imag A: 00000198, B: 00000042)
