scripts/output_fft_stage1.txt
VCD info: dumpfile fft_wave.vcd opened for output.
--- [Time 50000] Start Feeding 2048 Samples ---
[41190000 ns] Pair 0 | A_Re: 3f75e132 | B_Re: 3fb4138e | (Imag A: 00000000, B: 00000000)
[41230000 ns] Pair 1 | A_Re: bf430421 | B_Re: 3ec1fc1c | (Imag A: 00000000, B: 00000000)
[41270000 ns] Pair 2 | A_Re: bf9ddf25 | B_Re: bfad3e44 | (Imag A: 00000000, B: 00000000)
[41310000 ns] Pair 3 | A_Re: 3f1509bd | B_Re: bf20127c | (Imag A: 00000000, B: 00000000)
[41350000 ns] Pair 4 | A_Re: 3ef7c17e | B_Re: bf6c6c7f | (Imag A: 00000000, B: 00000000)
[41390000 ns] Pair 5 | A_Re: 3f9a61e9 | B_Re: 3fc63622 | (Imag A: 00000000, B: 00000000)
[41430000 ns] Pair 6 | A_Re: bd6f4fa8 | B_Re: 3fa2b1c9 | (Imag A: 00000000, B: 00000000)
[41470000 ns] Pair 7 | A_Re: bf72cc0b | B_Re: bfb2871c | (Imag A: 00000000, B: 00000000)
[41510000 ns] Pair 8 | A_Re: c01bece4 | B_Re: bfa466e7 | (Imag A: 00000000, B: 00000000)
[41550000 ns] Pair 9 | A_Re: 3eea5aac | B_Re: bf8b66a4 | (Imag A: 00000000, B: 00000000)
[41590000 ns] Pair 10 | A_Re: 3fc83dbf | B_Re: 3fdab979 | (Imag A: 00000000, B: 00000000)
[41630000 ns] Pair 11 | A_Re: 3ed20104 | B_Re: 3f9e3030 | (Imag A: 00000000, B: 00000000)
[41670000 ns] Pair 12 | A_Re: be8420b3 | B_Re: 3f845ef1 | (Imag A: 00000000, B: 00000000)
[41710000 ns] Pair 13 | A_Re: bf7c921a | B_Re: bf0583ac | (Imag A: 00000000, B: 00000000)
[41750000 ns] Pair 14 | A_Re: bf1d46dc | B_Re: bfa6bea5 | (Imag A: 00000000, B: 00000000)
[41790000 ns] Pair 15 | A_Re: 3f853ff5 | B_Re: 3ebae24b | (Imag A: 00000000, B: 00000000)
[41830000 ns] Pair 16 | A_Re: 3d98aea8 | B_Re: bf1370c5 | (Imag A: 00000000, B: 00000000)
[41870000 ns] Pair 17 | A_Re: 3f8c2dba | B_Re: 3fbb2e43 | (Imag A: 00000000, B: 00000000)
[41910000 ns] Pair 18 | A_Re: 3ece8e8f | B_Re: 3f92aa59 | (Imag A: 00000000, B: 00000000)
[41950000 ns] Pair 19 | A_Re: bfb24813 | B_Re: bfb72880 | (Imag A: 00000000, B: 00000000)
[41990000 ns] Pair 20 | A_Re: bfefbcf1 | B_Re: bffb05ad | (Imag A: 00000000, B: 00000000)
[42030000 ns] Pair 21 | A_Re: 3d886f18 | B_Re: bf54ff46 | (Imag A: 00000000, B: 00000000)
[42070000 ns] Pair 22 | A_Re: 400409de | B_Re: 3f93364a | (Imag A: 00000000, B: 00000000)
[42110000 ns] Pair 23 | A_Re: 3eb515ec | B_Re: 3f9ee3a3 | (Imag A: 00000000, B: 00000000)
[42150000 ns] Pair 24 | A_Re: 3e7f529c | B_Re: 3f58029d | (Imag A: 00000000, B: 00000000)
[42190000 ns] Pair 25 | A_Re: bf95be3f | B_Re: bef333bc | (Imag A: 00000000, B: 00000000)
[42230000 ns] Pair 26 | A_Re: bec835b5 | B_Re: bf0be577 | (Imag A: 00000000, B: 00000000)
[42270000 ns] Pair 27 | A_Re: 3f387e9f | B_Re: bf020f0e | (Imag A: 00000000, B: 00000000)
[42310000 ns] Pair 28 | A_Re: 3facd40c | B_Re: 3f315796 | (Imag A: 00000000, B: 00000000)
[42350000 ns] Pair 29 | A_Re: 3ef4684a | B_Re: 3f484775 | (Imag A: 00000000, B: 00000000)
[42390000 ns] Pair 30 | A_Re: bf7f1b65 | B_Re: 3eaba368 | (Imag A: 00000000, B: 00000000)
[42430000 ns] Pair 31 | A_Re: bf896507 | B_Re: bfd3a343 | (Imag A: 00000000, B: 00000000)
[42470000 ns] Pair 32 | A_Re: 3f4cc61f | B_Re: 3ec01f97 | (Imag A: 00000000, B: 00000000)
[42510000 ns] Pair 33 | A_Re: 3f14c5b8 | B_Re: 3fa408dd | (Imag A: 00000000, B: 00000000)
[42550000 ns] Pair 34 | A_Re: bf9810bd | B_Re: be875058 | (Imag A: 00000000, B: 00000000)
[42590000 ns] Pair 35 | A_Re: bf6d147d | B_Re: bfda1765 | (Imag A: 00000000, B: 00000000)
[42630000 ns] Pair 36 | A_Re: bf8732ef | B_Re: bfdb4131 | (Imag A: 00000000, B: 00000000)
[42670000 ns] Pair 37 | A_Re: 3f98fbb6 | B_Re: 3f2bd8f9 | (Imag A: 00000000, B: 00000000)
[42710000 ns] Pair 38 | A_Re: 3fbed328 | B_Re: 3ff4768c | (Imag A: 00000000, B: 00000000)
[42750000 ns] Pair 39 | A_Re: bf46ee12 | B_Re: bd41a990 | (Imag A: 00000000, B: 00000000)
[42790000 ns] Pair 40 | A_Re: bf5d310e | B_Re: 3e624b20 | (Imag A: 00000000, B: 00000000)
[42830000 ns] Pair 41 | A_Re: bf9fe8d8 | B_Re: bfafd8bd | (Imag A: 00000000, B: 00000000)
[42870000 ns] Pair 42 | A_Re: 3f565d1d | B_Re: beb2e9fa | (Imag A: 00000000, B: 00000000)
[42910000 ns] Pair 43 | A_Re: 3f9143ff | B_Re: 3fb6475a | (Imag A: 00000000, B: 00000000)
[42950000 ns] Pair 44 | A_Re: 3f9433ea | B_Re: 3f81cfb4 | (Imag A: 00000000, B: 00000000)
[42990000 ns] Pair 45 | A_Re: bf0f9eb1 | B_Re: 3f5ff495 | (Imag A: 00000000, B: 00000000)
[43030000 ns] Pair 46 | A_Re: bf95466d | B_Re: be954e8b | (Imag A: 00000000, B: 00000000)
[43070000 ns] Pair 47 | A_Re: bdc12908 | B_Re: bf59f288 | (Imag A: 00000000, B: 00000000)
[43110000 ns] Pair 48 | A_Re: bfc5a126 | B_Re: bfe92758 | (Imag A: 00000000, B: 00000000)
[43150000 ns] Pair 49 | A_Re: 3f9e46b1 | B_Re: 3e8fad98 | (Imag A: 00000000, B: 00000000)
[43190000 ns] Pair 50 | A_Re: 3fb1e7e3 | B_Re: 400a786f | (Imag A: 00000000, B: 00000000)
[43230000 ns] Pair 51 | A_Re: bf49b41c | B_Re: 3c807600 | (Imag A: 00000000, B: 00000000)
[43270000 ns] Pair 52 | A_Re: bfaf4810 | B_Re: bf1bfe36 | (Imag A: 00000000, B: 00000000)
[43310000 ns] Pair 53 | A_Re: bfa8e5bd | B_Re: bfaf5406 | (Imag A: 00000000, B: 00000000)
[43350000 ns] Pair 54 | A_Re: 3f28738f | B_Re: bf07681c | (Imag A: 00000000, B: 00000000)
[43390000 ns] Pair 55 | A_Re: 3fa5c493 | B_Re: 3f860f31 | (Imag A: 00000000, B: 00000000)
[43430000 ns] Pair 56 | A_Re: 3ea3cbcd | B_Re: 3f1c9f92 | (Imag A: 00000000, B: 00000000)
[43470000 ns] Pair 57 | A_Re: 3df8cb3c | B_Re: 3f8ea68b | (Imag A: 00000000, B: 00000000)
[43510000 ns] Pair 58 | A_Re: bf462694 | B_Re: be97a198 | (Imag A: 00000000, B: 00000000)
[43550000 ns] Pair 59 | A_Re: bf06ff49 | B_Re: bf5a8008 | (Imag A: 00000000, B: 00000000)
[43590000 ns] Pair 60 | A_Re: bd28d260 | B_Re: bf3a18eb | (Imag A: 00000000, B: 00000000)
[43630000 ns] Pair 61 | A_Re: 3fba9fbb | B_Re: 3f571cc2 | (Imag A: 00000000, B: 00000000)
[43670000 ns] Pair 62 | A_Re: 3f617bdc | B_Re: 3f7a88ad | (Imag A: 00000000, B: 00000000)
[43710000 ns] Pair 63 | A_Re: bf245021 | B_Re: beabd5b2 | (Imag A: 00000000, B: 00000000)
[43750000 ns] Pair 64 | A_Re: 3fa56dc9 | B_Re: 3f839958 | (Imag A: 00000000, B: 00000000)
[43790000 ns] Pair 65 | A_Re: bef72f74 | B_Re: 3eb540c4 | (Imag A: 00000000, B: 00000000)
[43830000 ns] Pair 66 | A_Re: bfc35d6e | B_Re: beec5559 | (Imag A: 00000000, B: 00000000)
[43870000 ns] Pair 67 | A_Re: beab56a2 | B_Re: bf7633e1 | (Imag A: 00000000, B: 00000000)
[43910000 ns] Pair 68 | A_Re: be7bbb64 | B_Re: bfa47416 | (Imag A: 00000000, B: 00000000)
[43950000 ns] Pair 69 | A_Re: 3fab2a8d | B_Re: 3f0ed519 | (Imag A: 00000000, B: 00000000)
[43990000 ns] Pair 70 | A_Re: 3ea5b5c5 | B_Re: 3fc41ade | (Imag A: 00000000, B: 00000000)
[44030000 ns] Pair 71 | A_Re: bf86f4ac | B_Re: bf5e4e5e | (Imag A: 00000000, B: 00000000)
[44070000 ns] Pair 72 | A_Re: bfd0c9dd | B_Re: bf8f8fff | (Imag A: 00000000, B: 00000000)
[44110000 ns] Pair 73 | A_Re: bf38bd81 | B_Re: bfa9974e | (Imag A: 00000000, B: 00000000)
[44150000 ns] Pair 74 | A_Re: 3fae9fb9 | B_Re: 3f0226da | (Imag A: 00000000, B: 00000000)
[44190000 ns] Pair 75 | A_Re: 3fbdf4cc | B_Re: 400232f6 | (Imag A: 00000000, B: 00000000)
[44230000 ns] Pair 76 | A_Re: 3eff24ce | B_Re: 3fb24386 | (Imag A: 00000000, B: 00000000)
[44270000 ns] Pair 77 | A_Re: bfb56513 | B_Re: be9d0da2 | (Imag A: 00000000, B: 00000000)
[44310000 ns] Pair 78 | A_Re: bfcc93b1 | B_Re: bf83f106 | (Imag A: 00000000, B: 00000000)
[44350000 ns] Pair 79 | A_Re: 3f641804 | B_Re: bf58b949 | (Imag A: 00000000, B: 00000000)
[44390000 ns] Pair 80 | A_Re: be86e0b0 | B_Re: bfc32eae | (Imag A: 00000000, B: 00000000)
[44430000 ns] Pair 81 | A_Re: 3fde3c28 | B_Re: 3f7d331f | (Imag A: 00000000, B: 00000000)
[44470000 ns] Pair 82 | A_Re: 3f8b25ec | B_Re: 3ff006d5 | (Imag A: 00000000, B: 00000000)
[44510000 ns] Pair 83 | A_Re: bf862051 | B_Re: bf312eca | (Imag A: 00000000, B: 00000000)
[44550000 ns] Pair 84 | A_Re: c003cbd5 | B_Re: bfb1d68f | (Imag A: 00000000, B: 00000000)
[44590000 ns] Pair 85 | A_Re: bf1697a7 | B_Re: bfa6e7ca | (Imag A: 00000000, B: 00000000)
[44630000 ns] Pair 86 | A_Re: 3fe34753 | B_Re: 3f182b08 | (Imag A: 00000000, B: 00000000)
[44670000 ns] Pair 87 | A_Re: 3f8bc186 | B_Re: 3f95534e | (Imag A: 00000000, B: 00000000)
[44710000 ns] Pair 88 | A_Re: 3f3f164f | B_Re: 3f5865ef | (Imag A: 00000000, B: 00000000)
[44750000 ns] Pair 89 | A_Re: bf8cadbe | B_Re: 3eee9a85 | (Imag A: 00000000, B: 00000000)
[44790000 ns] Pair 90 | A_Re: bf6e3030 | B_Re: bea66274 | (Imag A: 00000000, B: 00000000)
[44830000 ns] Pair 91 | A_Re: 3f183099 | B_Re: bec6f493 | (Imag A: 00000000, B: 00000000)
[44870000 ns] Pair 92 | A_Re: 3efe10ce | B_Re: bd85f6e0 | (Imag A: 00000000, B: 00000000)
[44910000 ns] Pair 93 | A_Re: 3f951e3a | B_Re: 3fab2049 | (Imag A: 00000000, B: 00000000)
[44950000 ns] Pair 94 | A_Re: be10ca08 | B_Re: 3fc12d87 | (Imag A: 00000000, B: 00000000)
[44990000 ns] Pair 95 | A_Re: bfcf1032 | B_Re: bf91c1ee | (Imag A: 00000000, B: 00000000)
[45030000 ns] Pair 96 | A_Re: 3f4282bd | B_Re: be533078 | (Imag A: 00000000, B: 00000000)
[45070000 ns] Pair 97 | A_Re: 3f93d0ae | B_Re: 3fa78c9e | (Imag A: 00000000, B: 00000000)
[45110000 ns] Pair 98 | A_Re: bed2e58d | B_Re: 3f05797e | (Imag A: 00000000, B: 00000000)
[45150000 ns] Pair 99 | A_Re: bf96d410 | B_Re: bfef19b7 | (Imag A: 00000000, B: 00000000)
[45190000 ns] Pair 100 | A_Re: bfbb4bcc | B_Re: bff0e85e | (Imag A: 00000000, B: 00000000)
[45230000 ns] Pair 101 | A_Re: 3f2e7de8 | B_Re: be21c79c | (Imag A: 00000000, B: 00000000)
[45270000 ns] Pair 102 | A_Re: 3fd13f2a | B_Re: 4014f88b | (Imag A: 00000000, B: 00000000)
[45310000 ns] Pair 103 | A_Re: bf2c53f0 | B_Re: 3f5def1e | (Imag A: 00000000, B: 00000000)
[45350000 ns] Pair 104 | A_Re: bf75171b | B_Re: 3f094ced | (Imag A: 00000000, B: 00000000)
[45390000 ns] Pair 105 | A_Re: bfc50bd8 | B_Re: bfb822cc | (Imag A: 00000000, B: 00000000)
[45430000 ns] Pair 106 | A_Re: be617838 | B_Re: bf45cd03 | (Imag A: 00000000, B: 00000000)
[45470000 ns] Pair 107 | A_Re: 3fbd859c | B_Re: 3f857922 | (Imag A: 00000000, B: 00000000)
[45510000 ns] Pair 108 | A_Re: 3f94f15c | B_Re: 3f512e61 | (Imag A: 00000000, B: 00000000)
[45550000 ns] Pair 109 | A_Re: 3ec2454c | B_Re: 3fa13f63 | (Imag A: 00000000, B: 00000000)
[45590000 ns] Pair 110 | A_Re: bfd1e660 | B_Re: be35ea44 | (Imag A: 00000000, B: 00000000)
[45630000 ns] Pair 111 | A_Re: bf6d9196 | B_Re: bfae1c0d | (Imag A: 00000000, B: 00000000)
[45670000 ns] Pair 112 | A_Re: bfdc1b60 | B_Re: bfbbff70 | (Imag A: 00000000, B: 00000000)
[45710000 ns] Pair 113 | A_Re: 3eb5ae8e | B_Re: 3d74b340 | (Imag A: 00000000, B: 00000000)
[45750000 ns] Pair 114 | A_Re: 3fe3022b | B_Re: 3fca19d8 | (Imag A: 00000000, B: 00000000)
[45790000 ns] Pair 115 | A_Re: 3f43741a | B_Re: 3e91a15e | (Imag A: 00000000, B: 00000000)
[45830000 ns] Pair 116 | A_Re: bf4aea60 | B_Re: 3e99dd72 | (Imag A: 00000000, B: 00000000)
[45870000 ns] Pair 117 | A_Re: bfcf46bc | B_Re: bfbb1f35 | (Imag A: 00000000, B: 00000000)
[45910000 ns] Pair 118 | A_Re: 3f32c746 | B_Re: bf4afea7 | (Imag A: 00000000, B: 00000000)
[45950000 ns] Pair 119 | A_Re: 3fe82ae5 | B_Re: 3f8e7f7f | (Imag A: 00000000, B: 00000000)
[45990000 ns] Pair 120 | A_Re: 3f32a542 | B_Re: 3c4ff440 | (Imag A: 00000000, B: 00000000)
[46030000 ns] Pair 121 | A_Re: 3ed3dcb2 | B_Re: 3fbc6c8c | (Imag A: 00000000, B: 00000000)
[46070000 ns] Pair 122 | A_Re: bf2fc76e | B_Re: 3ebe5dce | (Imag A: 00000000, B: 00000000)
[46110000 ns] Pair 123 | A_Re: bf862acf | B_Re: bfd5d8d6 | (Imag A: 00000000, B: 00000000)
[46150000 ns] Pair 124 | A_Re: bf002772 | B_Re: bf9cc692 | (Imag A: 00000000, B: 00000000)
[46190000 ns] Pair 125 | A_Re: 3f788f13 | B_Re: be58862c | (Imag A: 00000000, B: 00000000)
[46230000 ns] Pair 126 | A_Re: 3fe22666 | B_Re: 3fabc4de | (Imag A: 00000000, B: 00000000)
[46270000 ns] Pair 127 | A_Re: bee6c24e | B_Re: 3e7c343c | (Imag A: 00000000, B: 00000000)
[46310000 ns] Pair 128 | A_Re: 3fae8b52 | B_Re: 3feef57b | (Imag A: 00000000, B: 00000000)
[46350000 ns] Pair 129 | A_Re: bf13b7e9 | B_Re: 3df40148 | (Imag A: 00000000, B: 00000000)
[46390000 ns] Pair 130 | A_Re: bffa60b9 | B_Re: bf956473 | (Imag A: 00000000, B: 00000000)
[46430000 ns] Pair 131 | A_Re: 3dae29f0 | B_Re: bf53136e | (Imag A: 00000000, B: 00000000)
[46470000 ns] Pair 132 | A_Re: 3f4d8de6 | B_Re: be22574a | (Imag A: 00000000, B: 00000000)
[46510000 ns] Pair 133 | A_Re: 3fc9acba | B_Re: 3f9342cb | (Imag A: 00000000, B: 00000000)
[46550000 ns] Pair 134 | A_Re: bf491d99 | B_Re: 3efd391f | (Imag A: 00000000, B: 00000000)
[46590000 ns] Pair 135 | A_Re: bf8d98cc | B_Re: bf8b8e5c | (Imag A: 00000000, B: 00000000)
[46630000 ns] Pair 136 | A_Re: bf1b1656 | B_Re: be3a37f0 | (Imag A: 00000000, B: 00000000)
[46670000 ns] Pair 137 | A_Re: bed83488 | B_Re: bfa6012f | (Imag A: 00000000, B: 00000000)
[46710000 ns] Pair 138 | A_Re: 3f0cda87 | B_Re: be80ef56 | (Imag A: 00000000, B: 00000000)
[46750000 ns] Pair 139 | A_Re: 3fb6d3e9 | B_Re: 3fde1aec | (Imag A: 00000000, B: 00000000)
[46790000 ns] Pair 140 | A_Re: 3f910661 | B_Re: 3fd443ca | (Imag A: 00000000, B: 00000000)
[46830000 ns] Pair 141 | A_Re: bfa03895 | B_Re: beccecc8 | (Imag A: 00000000, B: 00000000)
[46870000 ns] Pair 142 | A_Re: bf84b2a8 | B_Re: c009c8b8 | (Imag A: 00000000, B: 00000000)
[46910000 ns] Pair 143 | A_Re: 3ef1598e | B_Re: be9603e4 | (Imag A: 00000000, B: 00000000)
[46950000 ns] Pair 144 | A_Re: 3eee411e | B_Re: bef5f787 | (Imag A: 00000000, B: 00000000)
[46990000 ns] Pair 145 | A_Re: 3f7988f1 | B_Re: 3f2dc7b4 | (Imag A: 00000000, B: 00000000)
[47030000 ns] Pair 146 | A_Re: be5ec2c4 | B_Re: 3f4685e5 | (Imag A: 00000000, B: 00000000)
[47070000 ns] Pair 147 | A_Re: bfc57e75 | B_Re: bf2711fc | (Imag A: 00000000, B: 00000000)
[47110000 ns] Pair 148 | A_Re: bef3f6a7 | B_Re: bf1f8e27 | (Imag A: 00000000, B: 00000000)
[47150000 ns] Pair 149 | A_Re: 3d655d28 | B_Re: bf3a078e | (Imag A: 00000000, B: 00000000)
[47190000 ns] Pair 150 | A_Re: 3f375fe4 | B_Re: bd283bb0 | (Imag A: 00000000, B: 00000000)
[47230000 ns] Pair 151 | A_Re: 3f685637 | B_Re: 3fd2696e | (Imag A: 00000000, B: 00000000)
[47270000 ns] Pair 152 | A_Re: 3fe94325 | B_Re: 40147e10 | (Imag A: 00000000, B: 00000000)
[47310000 ns] Pair 153 | A_Re: bf8fa0c8 | B_Re: 3e1b9ff8 | (Imag A: 00000000, B: 00000000)
[47350000 ns] Pair 154 | A_Re: c00240c5 | B_Re: bffddaa4 | (Imag A: 00000000, B: 00000000)
[47390000 ns] Pair 155 | A_Re: 3f1c3053 | B_Re: 3e351670 | (Imag A: 00000000, B: 00000000)
[47430000 ns] Pair 156 | A_Re: 3f31e574 | B_Re: be94cc40 | (Imag A: 00000000, B: 00000000)
[47470000 ns] Pair 157 | A_Re: 3fada197 | B_Re: 3fc68d91 | (Imag A: 00000000, B: 00000000)
[47510000 ns] Pair 158 | A_Re: bef667d9 | B_Re: 3f59aa57 | (Imag A: 00000000, B: 00000000)
[47550000 ns] Pair 159 | A_Re: bf900766 | B_Re: bfdd300e | (Imag A: 00000000, B: 00000000)
[47590000 ns] Pair 160 | A_Re: 3fa9beb2 | B_Re: 3f947535 | (Imag A: 00000000, B: 00000000)
[47630000 ns] Pair 161 | A_Re: 3f0a3227 | B_Re: 3fc4d098 | (Imag A: 00000000, B: 00000000)
[47670000 ns] Pair 162 | A_Re: bf3cf772 | B_Re: bec4fe3d | (Imag A: 00000000, B: 00000000)
[47710000 ns] Pair 163 | A_Re: bf900208 | B_Re: bf49cef1 | (Imag A: 00000000, B: 00000000)
[47750000 ns] Pair 164 | A_Re: bf6fa050 | B_Re: bf954cc1 | (Imag A: 00000000, B: 00000000)
[47790000 ns] Pair 165 | A_Re: 3f36c38e | B_Re: 3f076187 | (Imag A: 00000000, B: 00000000)
[47830000 ns] Pair 166 | A_Re: 3f6c8316 | B_Re: 3f616e04 | (Imag A: 00000000, B: 00000000)
[47870000 ns] Pair 167 | A_Re: bf0dca93 | B_Re: 3d841910 | (Imag A: 00000000, B: 00000000)
[47910000 ns] Pair 168 | A_Re: 3e71b7ac | B_Re: 3fb42178 | (Imag A: 00000000, B: 00000000)
[47950000 ns] Pair 169 | A_Re: bfb97426 | B_Re: bf826b9b | (Imag A: 00000000, B: 00000000)
[47990000 ns] Pair 170 | A_Re: bf845e17 | B_Re: bfed747c | (Imag A: 00000000, B: 00000000)
[48030000 ns] Pair 171 | A_Re: 3fa7ce84 | B_Re: 3f24b3cb | (Imag A: 00000000, B: 00000000)
[48070000 ns] Pair 172 | A_Re: 40079bbc | B_Re: 3f99726e | (Imag A: 00000000, B: 00000000)
[48110000 ns] Pair 173 | A_Re: 3e8f9558 | B_Re: 3f72416f | (Imag A: 00000000, B: 00000000)
[48150000 ns] Pair 174 | A_Re: bf88b2e2 | B_Re: bf4066d0 | (Imag A: 00000000, B: 00000000)
[48190000 ns] Pair 175 | A_Re: bdf39798 | B_Re: bfa6c6fa | (Imag A: 00000000, B: 00000000)
[48230000 ns] Pair 176 | A_Re: bf399add | B_Re: bf5eacba | (Imag A: 00000000, B: 00000000)
[48270000 ns] Pair 177 | A_Re: 3ec1e6be | B_Re: 3eca7066 | (Imag A: 00000000, B: 00000000)
[48310000 ns] Pair 178 | A_Re: 3f6fe84a | B_Re: 3f7abb53 | (Imag A: 00000000, B: 00000000)
[48350000 ns] Pair 179 | A_Re: be83139c | B_Re: 3f3eba4c | (Imag A: 00000000, B: 00000000)
[48390000 ns] Pair 180 | A_Re: bde962a0 | B_Re: 3e92c10a | (Imag A: 00000000, B: 00000000)
[48430000 ns] Pair 181 | A_Re: bfa4bcf4 | B_Re: bfb70279 | (Imag A: 00000000, B: 00000000)
[48470000 ns] Pair 182 | A_Re: be71741a | B_Re: bf03576d | (Imag A: 00000000, B: 00000000)
[48510000 ns] Pair 183 | A_Re: 3f934342 | B_Re: 3f874a13 | (Imag A: 00000000, B: 00000000)
[48550000 ns] Pair 184 | A_Re: 40061184 | B_Re: 400110c3 | (Imag A: 00000000, B: 00000000)
[48590000 ns] Pair 185 | A_Re: 3ea51fe4 | B_Re: 3f88eba6 | (Imag A: 00000000, B: 00000000)
[48630000 ns] Pair 186 | A_Re: bfc53d0c | B_Re: bfaebd30 | (Imag A: 00000000, B: 00000000)
[48670000 ns] Pair 187 | A_Re: bf557c47 | B_Re: bfdf9241 | (Imag A: 00000000, B: 00000000)
[48710000 ns] Pair 188 | A_Re: bf00d4d8 | B_Re: bf59a40d | (Imag A: 00000000, B: 00000000)
[48750000 ns] Pair 189 | A_Re: 3fec4386 | B_Re: 3f71d3a1 | (Imag A: 00000000, B: 00000000)
[48790000 ns] Pair 190 | A_Re: 3fac69d1 | B_Re: 3fb96f7a | (Imag A: 00000000, B: 00000000)
[48830000 ns] Pair 191 | A_Re: bfecf87a | B_Re: be67e08c | (Imag A: 00000000, B: 00000000)
[48870000 ns] Pair 192 | A_Re: 3ffbc5bb | B_Re: 3f5bd7ce | (Imag A: 00000000, B: 00000000)
[48910000 ns] Pair 193 | A_Re: 3dfdd5c8 | B_Re: 3c9bba80 | (Imag A: 00000000, B: 00000000)
[48950000 ns] Pair 194 | A_Re: c0150169 | B_Re: bf9667e3 | (Imag A: 00000000, B: 00000000)
[48990000 ns] Pair 195 | A_Re: 3c84ea00 | B_Re: bfa755e0 | (Imag A: 00000000, B: 00000000)
[49030000 ns] Pair 196 | A_Re: 3f1352b9 | B_Re: be2f9f46 | (Imag A: 00000000, B: 00000000)
[49070000 ns] Pair 197 | A_Re: 3faac12b | B_Re: 3f732b38 | (Imag A: 00000000, B: 00000000)
[49110000 ns] Pair 198 | A_Re: 3e5a6b0c | B_Re: 3f24f797 | (Imag A: 00000000, B: 00000000)
[49150000 ns] Pair 199 | A_Re: bfa220be | B_Re: bee2609d | (Imag A: 00000000, B: 00000000)
[49190000 ns] Pair 200 | A_Re: bf37541c | B_Re: 3f2e13b1 | (Imag A: 00000000, B: 00000000)
[49230000 ns] Pair 201 | A_Re: bfa92389 | B_Re: bfaf5b37 | (Imag A: 00000000, B: 00000000)
[49270000 ns] Pair 202 | A_Re: 3eadd34c | B_Re: bf8994de | (Imag A: 00000000, B: 00000000)
[49310000 ns] Pair 203 | A_Re: 3fa4692b | B_Re: 3f94074d | (Imag A: 00000000, B: 00000000)
[49350000 ns] Pair 204 | A_Re: 3ff2dda0 | B_Re: 3fcfc45d | (Imag A: 00000000, B: 00000000)
[49390000 ns] Pair 205 | A_Re: bf9ac8f7 | B_Re: 3ee2e99a | (Imag A: 00000000, B: 00000000)
[49430000 ns] Pair 206 | A_Re: bff42be3 | B_Re: bfcbe737 | (Imag A: 00000000, B: 00000000)
[49470000 ns] Pair 207 | A_Re: 3e1a7088 | B_Re: bf564559 | (Imag A: 00000000, B: 00000000)
[49510000 ns] Pair 208 | A_Re: be8a1ade | B_Re: bf459a0c | (Imag A: 00000000, B: 00000000)
[49550000 ns] Pair 209 | A_Re: 3fac8e96 | B_Re: 3ee750a4 | (Imag A: 00000000, B: 00000000)
[49590000 ns] Pair 210 | A_Re: 3f1ff0dc | B_Re: 3f2d409d | (Imag A: 00000000, B: 00000000)
[49630000 ns] Pair 211 | A_Re: bf6092ff | B_Re: be201006 | (Imag A: 00000000, B: 00000000)
[49670000 ns] Pair 212 | A_Re: bf33034e | B_Re: 3eaf8b72 | (Imag A: 00000000, B: 00000000)
[49710000 ns] Pair 213 | A_Re: becd33f2 | B_Re: bfbed9d0 | (Imag A: 00000000, B: 00000000)
[49750000 ns] Pair 214 | A_Re: 3ec87546 | B_Re: bf44838e | (Imag A: 00000000, B: 00000000)
[49790000 ns] Pair 215 | A_Re: 3f79a501 | B_Re: 3fb612f8 | (Imag A: 00000000, B: 00000000)
[49830000 ns] Pair 216 | A_Re: 3fe37a82 | B_Re: 4014e275 | (Imag A: 00000000, B: 00000000)
[49870000 ns] Pair 217 | A_Re: 3e3d88b4 | B_Re: 3db34550 | (Imag A: 00000000, B: 00000000)
[49910000 ns] Pair 218 | A_Re: c0093369 | B_Re: bffc727b | (Imag A: 00000000, B: 00000000)
[49950000 ns] Pair 219 | A_Re: bed6fcd0 | B_Re: bfa70e05 | (Imag A: 00000000, B: 00000000)
[49990000 ns] Pair 220 | A_Re: 3db39f80 | B_Re: bec48bb8 | (Imag A: 00000000, B: 00000000)
[50030000 ns] Pair 221 | A_Re: 4000fd58 | B_Re: 3fc1650a | (Imag A: 00000000, B: 00000000)
[50070000 ns] Pair 222 | A_Re: 3e00bc3c | B_Re: 3fb55db7 | (Imag A: 00000000, B: 00000000)
[50110000 ns] Pair 223 | A_Re: bfab7222 | B_Re: bfb9730a | (Imag A: 00000000, B: 00000000)
[50150000 ns] Pair 224 | A_Re: 3ef1c8a5 | B_Re: 3f0acca3 | (Imag A: 00000000, B: 00000000)
[50190000 ns] Pair 225 | A_Re: 3f812c20 | B_Re: 3fbfdd7e | (Imag A: 00000000, B: 00000000)
[50230000 ns] Pair 226 | A_Re: befcae06 | B_Re: 3e642dbe | (Imag A: 00000000, B: 00000000)
[50270000 ns] Pair 227 | A_Re: c0058d77 | B_Re: bf8c03b4 | (Imag A: 00000000, B: 00000000)
[50310000 ns] Pair 228 | A_Re: bf47206d | B_Re: bf2d39b0 | (Imag A: 00000000, B: 00000000)
[50350000 ns] Pair 229 | A_Re: 3f222293 | B_Re: be69e938 | (Imag A: 00000000, B: 00000000)
[50390000 ns] Pair 230 | A_Re: 3f80240a | B_Re: 3eef0d2a | (Imag A: 00000000, B: 00000000)
[50430000 ns] Pair 231 | A_Re: 3d1a6f20 | B_Re: 3f426c20 | (Imag A: 00000000, B: 00000000)
[50470000 ns] Pair 232 | A_Re: 3f6c07b7 | B_Re: 400b46f6 | (Imag A: 00000000, B: 00000000)
[50510000 ns] Pair 233 | A_Re: bfc2a360 | B_Re: bf4cf95c | (Imag A: 00000000, B: 00000000)
[50550000 ns] Pair 234 | A_Re: bfb757bb | B_Re: c0086a66 | (Imag A: 00000000, B: 00000000)
[50590000 ns] Pair 235 | A_Re: 3f9d2c44 | B_Re: bddaa0d0 | (Imag A: 00000000, B: 00000000)
[50630000 ns] Pair 236 | A_Re: 3fb8f168 | B_Re: 3f1f77a8 | (Imag A: 00000000, B: 00000000)
[50670000 ns] Pair 237 | A_Re: bdb71100 | B_Re: 3fb4997b | (Imag A: 00000000, B: 00000000)
[50710000 ns] Pair 238 | A_Re: bfb3baf6 | B_Re: 3ef7a2bd | (Imag A: 00000000, B: 00000000)
[50750000 ns] Pair 239 | A_Re: bf8475f5 | B_Re: bfaab4d3 | (Imag A: 00000000, B: 00000000)
[50790000 ns] Pair 240 | A_Re: bf7ae628 | B_Re: bf3d4ee7 | (Imag A: 00000000, B: 00000000)
[50830000 ns] Pair 241 | A_Re: bcd07d80 | B_Re: bf506448 | (Imag A: 00000000, B: 00000000)
[50870000 ns] Pair 242 | A_Re: 3f734b48 | B_Re: 3e8cbf52 | (Imag A: 00000000, B: 00000000)
[50910000 ns] Pair 243 | A_Re: be391426 | B_Re: 3fa980df | (Imag A: 00000000, B: 00000000)
[50950000 ns] Pair 244 | A_Re: 3dec85c0 | B_Re: 3fd237cd | (Imag A: 00000000, B: 00000000)
[50990000 ns] Pair 245 | A_Re: bf9c239e | B_Re: bf952858 | (Imag A: 00000000, B: 00000000)
[51030000 ns] Pair 246 | A_Re: bf015165 | B_Re: bf64d5d2 | (Imag A: 00000000, B: 00000000)
[51070000 ns] Pair 247 | A_Re: 3f90576b | B_Re: 3f897ba7 | (Imag A: 00000000, B: 00000000)
